Place,Name,Division,Sex,Event,Equipment,WeightClassKg,Team,State,BodyweightKg,Squat1Kg,Squat2Kg,Squat3Kg,Best3SquatKg,Bench1Kg,Bench2Kg,Bench3Kg,Best3BenchKg,Deadlift1Kg,Deadlift2Kg,Deadlift3Kg,Best3DeadliftKg,TotalKg
1,Stevie Cross,Freshman/Sophomore,F,SBD,Single-ply,44,Necedah,WI,42.95,65,77.5,80,80,42.5,-45,-45,42.5,77.5,85,-95,85,207.5
1,Barbara Vallejo,Freshman/Sophomore,F,SBD,Single-ply,48,Del Valle,TX,47.1,62.5,-67.5,-70,62.5,30,32.5,35,35,82.5,87.5,92.5,92.5,190
2,Aimee Meunier,Freshman/Sophomore,F,SBD,Single-ply,48,GET,WI,47.55,42.5,55,-60,55,25,30,-32.5,30,57.5,75,-85,75,160
3,Jena Moller,Freshman/Sophomore,F,SBD,Single-ply,48,GET,WI,45.9,42.5,-55,-55,42.5,25,27.5,-37.5,27.5,57.5,75,-92.5,75,145
1,Brooke Updike,Freshman/Sophomore,F,SBD,Single-ply,52,GET,WI,50.05,50,57.5,67.5,67.5,25,32.5,35,35,70,82.5,92.5,92.5,195
2,Britney Gill,Freshman/Sophomore,F,SBD,Single-ply,52,Bradley Middle School,NC,47.75,42.5,47.5,-57.5,47.5,-32.5,32.5,-40,32.5,82.5,92.5,-102.5,92.5,172.5
1,Jasmine Brewer,Freshman/Sophomore,F,SBD,Single-ply,56,Riverdale HS,WI,53.75,92.5,-97.5,97.5,97.5,47.5,50,-52.5,50,122.5,130,-135,130,277.5
2,Kristin Van Meter,Freshman/Sophomore,F,SBD,Single-ply,56,Necedah,WI,55.55,92.5,102.5,110,110,40,-42.5,42.5,42.5,102.5,-115,-115,102.5,255
3,Jordan Ryder,Freshman/Sophomore,F,SBD,Single-ply,56,GET,WI,54.05,50,67.5,72.5,72.5,27.5,40,-42.5,40,67.5,87.5,92.5,92.5,205
1,Lindsey Hartman,Freshman/Sophomore,F,SBD,Single-ply,60,Ansley Public,NE,59.8,-120,125,132.5,132.5,45,50,-52.5,50,127.5,140,145,145,327.5
2,Heather Whited,Freshman/Sophomore,F,SBD,Single-ply,60,Del Valle,TX,59.5,-110,110,-117.5,110,65,70,-75,70,115,-120,120,120,300
3,Chelsey Schock,Freshman/Sophomore,F,SBD,Single-ply,60,GET,WI,57.75,92.5,-102.5,-102.5,92.5,40,50,-55,50,105,120,-122.5,120,262.5
4,Amy Welcome,Freshman/Sophomore,F,SBD,Single-ply,60,Abington Heights,PA,57.2,-82.5,87.5,95,95,35,37.5,-40,37.5,97.5,110,122.5,122.5,255
5,Becky Black,Freshman/Sophomore,F,SBD,Single-ply,60,GET,WI,57.4,77.5,90,-97.5,90,37.5,45,-47.5,45,102.5,-120,120,120,255
6,Elizabeth Severson,Freshman/Sophomore,F,SBD,Single-ply,60,GET,WI,57.1,-77.5,-77.5,77.5,77.5,32.5,42.5,-47.5,42.5,80,100,107.5,107.5,227.5
7,Justine Dunker,Freshman/Sophomore,F,SBD,Single-ply,60,Valley,NE,57.95,57.5,67.5,-72.5,67.5,30,35,-37.5,35,90,-105,-112.5,90,192.5
1,Megan Brabec,Freshman/Sophomore,F,SBD,Single-ply,67.5,Clarkson,NE,64.8,117.5,135,155,155,-60,65,-70,65,125,140,145,145,365
2,Ambroshia Marshall,Freshman/Sophomore,F,SBD,Single-ply,67.5,Del Valle,TX,64.3,115,-122.5,-127.5,115,52.5,57.5,-60,57.5,125,132.5,-137.5,132.5,305
3,Kamorean Hayes,Freshman/Sophomore,F,SBD,Single-ply,67.5,Village School,NC,65.8,67.5,-97.5,-97.5,67.5,62.5,72.5,-75,72.5,115,137.5,140,140,280
4,Jodi Bossier,Freshman/Sophomore,F,SBD,Single-ply,67.5,Alexandria SH,LA,65.2,-97.5,-97.5,97.5,97.5,55,57.5,62.5,62.5,107.5,117.5,-122.5,117.5,277.5
5,Renae Tridle,Freshman/Sophomore,F,SBD,Single-ply,67.5,GET,WI,61.35,92.5,102.5,-107.5,102.5,40,47.5,52.5,52.5,92.5,105,110,110,265
DQ,Jessica Eake,Freshman/Sophomore,F,SBD,Single-ply,67.5,Neenah HS,WI,62.2,-115,-115,-115,,,,,,,,,,
1,Laura Wisniewski,Freshman/Sophomore,F,SBD,Single-ply,75,Neenah HS,WI,70.6,107.5,-120,120,120,55,60,-62.5,60,112.5,122.5,127.5,127.5,307.5
2,Jenna Barrett,Freshman/Sophomore,F,SBD,Single-ply,75,Neenah HS,WI,73.1,-107.5,107.5,117.5,117.5,45,52.5,-60,52.5,102.5,115,122.5,122.5,292.5
3,Heidi Jo Brenengen,Freshman/Sophomore,F,SBD,Single-ply,75,GET,WI,70.4,95,105,110,110,35,45,-50,45,102.5,117.5,-127.5,117.5,272.5
1,Brandy Cox,Freshman/Sophomore,F,SBD,Single-ply,82.5,Harding HS,NC,77.25,-67.5,67.5,100,100,-67.5,77.5,-82.5,77.5,122.5,137.5,-145,137.5,315
1,Tamara Walter,Freshman/Sophomore,F,SBD,Single-ply,90+,Crofton HS,NE,119.5,115,130,137.5,137.5,-47.5,52.5,-57.5,52.5,125,132.5,142.5,142.5,332.5
2,Nicole Phillips,Freshman/Sophomore,F,SBD,Single-ply,90+,Neenah HS,WI,129.5,120,-130,-130,120,55,60,-62.5,60,120,132.5,-155,132.5,312.5
1,Mark Crocco Jr,Freshman/Sophomore,M,SBD,Single-ply,52,Pennridge,PA,51.3,-107,107.5,120,120,-75,75,-85,75,-142.5,142.5,-157.5,142.5,337.5
2,Kyle Dahl,Freshman/Sophomore,M,SBD,Single-ply,52,GET,WI,51.7,105,115,117.5,117.5,62.5,-72.5,72.5,72.5,135,147.5,-157.5,147.5,337.5
3,Chris Sayers,Freshman/Sophomore,M,SBD,Single-ply,52,Clarkson,NE,51.5,82.5,102.5,110,110,62.5,67.5,75,75,110,127.5,-137.5,127.5,312.5
DQ,Christopher Kilmer,Freshman/Sophomore,M,SBD,Single-ply,52,Valley,NE,49.7,85,-97.5,-97.5,85,-52.5,-52.5,-52.5,,,,,,
DQ,Joe Cefalu,Freshman/Sophomore,M,SBD,Single-ply,52,Bishop Sullivan,LA,51.2,-102.5,-110,-110,,,,,,,,,,
1,David Albus,Freshman/Sophomore,M,SBD,Single-ply,56,Bishop Sullivan,LA,55,-102.5,110,-115,110,52.5,60,-62.5,60,130,142.5,-150,142.5,312.5
DQ,Joey McKell,Freshman/Sophomore,M,SBD,Single-ply,56,Bishop Sullivan,LA,56,115,-130,130,130,-57.5,-57.5,-57.5,,,,,,
1,Maliek Derstine,Freshman/Sophomore,M,SBD,Single-ply,60,Pennridge,PA,58.1,-147.5,-147.5,147.5,147.5,90,-97.5,-97.5,90,162.5,172.5,185,185,422.5
2,Pat Doyle,Freshman/Sophomore,M,SBD,Single-ply,60,Abington Heights,PA,59.75,130,147.5,152.5,152.5,-75,75,-82.5,75,-135,135,152.5,152.5,380
3,William Egan,Freshman/Sophomore,M,SBD,Single-ply,60,Pennridge,PA,59.1,125,-132.5,-132.5,125,-72.5,72.5,-80,72.5,160,-167.5,-167.5,160,357.5
1,Clinton Sineath,Freshman/Sophomore,M,SBD,Single-ply,67.5,Buena HS,AZ,66.2,165,-172.5,-172.5,165,-110,110,-117.5,110,165,175,-180,175,450
2,Kyle Brady,Freshman/Sophomore,M,SBD,Single-ply,67.5,GET,WI,62.8,122.5,-147,147.5,147.5,85,95,100,100,157.5,172.5,177.5,177.5,425
3,Jonathon Jaeschke,Freshman/Sophomore,M,SBD,Single-ply,67.5,Loup City HS,NE,66.6,150,160,167.5,167.5,65,70,75,75,160,175,-185,175,417.5
4,Joseph Raehl,Freshman/Sophomore,M,SBD,Single-ply,67.5,Neenah HS,WI,64.5,-127.5,127.5,142.5,142.5,-82.5,82.5,-90,82.5,167.5,180,-185,180,405
5,Quentin Moller,Freshman/Sophomore,M,SBD,Single-ply,67.5,GET,WI,64.9,117.5,-127.5,127.5,127.5,72.5,80,82.5,82.5,172.5,192.5,-200,192.5,402.5
6,Jaime Lamberty,Freshman/Sophomore,M,SBD,Single-ply,67.5,Plainwell,MI,66,130,145,150,150,80,85,-90,85,142.5,160,167.5,167.5,402.5
7,Justin Tuinstra,Freshman/Sophomore,M,SBD,Single-ply,67.5,Plainwell,MI,66.5,140,147.5,-152.5,147.5,92.5,-102.5,-102.5,92.5,137.5,152.5,-170,152.5,392.5
8,Ryan Hart,Freshman/Sophomore,M,SBD,Single-ply,67.5,Stanton HS,NE,67.4,67.5,115,-140,115,110,-117.5,-117.5,110,67.5,140,-180,140,365
DQ,Mitch Stevens,Freshman/Sophomore,M,SBD,Single-ply,67.5,Pennridge,PA,65.7,-160,-160,-160,,,,,,,,,,
1,David Starkey,Freshman/Sophomore,M,SBD,Single-ply,75,St Amant HS,LA,73.6,182.5,200,-205,200,112.5,127.5,-132.5,127.5,202.5,215,-230,215,542.5
2,David Amond Jr,Freshman/Sophomore,M,SBD,Single-ply,75,Bishop Sullivan,LA,73.4,142.5,157.5,167.5,167.5,82.5,-90,-90,82.5,172.5,185,197.5,197.5,447.5
3,Tanner Deffinson,Freshman/Sophomore,M,SBD,Single-ply,75,GET,WI,72.9,135,147.5,-152.5,147.5,107.5,-117.5,-117.5,107.5,-165,165,-172.5,165,420
4,Parker Hodges,Freshman/Sophomore,M,SBD,Single-ply,75,Bishop Sullivan,LA,71.5,142.5,150,-155,150,-82.5,-82.5,82.5,82.5,162.5,182.5,-190,182.5,415
5,Cody Reulet,Freshman/Sophomore,M,SBD,Single-ply,75,Bishop Sullivan,LA,71.6,137.5,150,-155,150,77.5,-87.5,-87.5,77.5,155,165,-170,165,392.5
6,Joe Hansen,Freshman/Sophomore,M,SBD,Single-ply,75,Valley,NE,73.3,135,-150,-160,135,-65,65,-77.5,65,132.5,-150,-150,132.5,332.5
1,Matt Hafenbrack,Freshman/Sophomore,M,SBD,Single-ply,82.5,Yutan HS,NE,78.5,152.5,165,175,175,100,107.5,115,115,165,180,190,190,480
2,Mike Sell,Freshman/Sophomore,M,SBD,Single-ply,82.5,Mullen HS,CO,76.5,137.5,150,165,165,100,107.5,-115,107.5,177.5,192.5,-207.5,192.5,465
3,Codi Jacobs,Freshman/Sophomore,M,SBD,Single-ply,82.5,GET,WI,75.8,102.5,127.5,-140,127.5,70,82.5,-90,82.5,140,167.5,172.5,172.5,382.5
4,Adam Egbarts,Freshman/Sophomore,M,SBD,Single-ply,82.5,Valley,NE,75.7,100,115,125,125,70,77.5,85,85,137.5,160,-167.5,160,370
5,Jake Walker,Freshman/Sophomore,M,SBD,Single-ply,82.5,Valley,NE,80,132.5,140,-150,140,-75,-75,75,75,135,-150,150,150,365
1,Ryan Alles,Freshman/Sophomore,M,SBD,Single-ply,90,Pennridge,PA,84.9,-192.5,192.5,-205,192.5,130,135,-140,135,225,242.5,252.5,252.5,580
DQ,Vincent Abrego,Freshman/Sophomore,M,SBD,Single-ply,90,Notre Dame HS,IL,88.2,-205,-205,-205,,,,,,,,,,
1,Ryan Greiser,Freshman/Sophomore,M,SBD,Single-ply,100,Pennridge,PA,90.8,-190,-190,190,190,112.5,117.5,127.5,127.5,220,230,-232.5,230,547.5
2,Jeffrey Reim Jr,Freshman/Sophomore,M,SBD,Single-ply,100,Abington Heights,PA,92.2,175,187.5,195,195,97.5,107.5,110,110,185,197.5,207.5,207.5,512.5
3,Jon Myrick,Freshman/Sophomore,M,SBD,Single-ply,100,Stanton HS,NE,98.4,160,182.5,-187.5,182.5,110,-112.5,-112.5,110,75,182.5,190,190,482.5
4,Shane Reulet,Freshman/Sophomore,M,SBD,Single-ply,100,Bishop Sullivan,LA,90.7,155,162.5,-175,162.5,-110,110,115,115,155,170,182.5,182.5,460
1,Alex Neukirch,Freshman/Sophomore,M,SBD,Single-ply,110,Yutan HS,NE,107.5,175,195,210,210,97.5,105,110,110,182.5,197.5,205,205,525
2,Zach Webber,Freshman/Sophomore,M,SBD,Single-ply,110,Necedah,WI,108,215,-217.5,-220,215,72.5,80,85,85,182.5,195,-225,195,495
3,Andy Komperud,Freshman/Sophomore,M,SBD,Single-ply,110,GET,WI,108.3,142.5,167.5,-182.5,167.5,-77.5,80,-92.5,80,142.5,170,-177.5,170,417.5
1,Chris Anderson,Freshman/Sophomore,M,SBD,Single-ply,125,GET,WI,122.6,142.5,-200,207.5,207.5,100,110,-112,110,142.5,185,197.5,197.5,515
DQ,Jeff Wollen,Freshman/Sophomore,M,SBD,Single-ply,125+,Yutan HS,NE,137.5,-227.5,-227.5,-227.5,,,,,,,,,,
1,Dayna Sifuentez,Varsity,F,SBD,Single-ply,44,Del Valle,TX,43.3,82.5,90,95,95,45,47.5,50,50,97.5,105,110,110,255
2,Courtney Young,Varsity,F,SBD,Single-ply,44,East Ascension HS,LA,43.4,65,80,85,85,30,35,37.5,37.5,87.5,102.5,-110,102.5,225
3,Stephanie Ybarra,Varsity,F,SBD,Single-ply,44,Del Valle,TX,42.2,80,85,92.5,92.5,37.5,40,42.5,42.5,82.5,87.5,-92.5,87.5,222.5
4,Sarah Deville,Varsity,F,SBD,Single-ply,44,Alexandria SH,LA,43.3,72.5,77.5,-82.5,77.5,-37.5,37.5,40,40,95,-100,105,105,222.5
5,Kasey Parker,Varsity,F,SBD,Single-ply,44,Necedah,WI,43.6,70,80,82.5,82.5,35,-37.5,-37.5,35,92.5,-97.5,97.5,97.5,215
6,Danna Thomas,Varsity,F,SBD,Single-ply,44,Lakeview,LA,42,70,-75,-75,70,30,35,-37.5,35,82.5,87.5,90,90,195
1,Audrey Karbowski,Varsity,F,SBD,Single-ply,48,Necedah,WI,47.5,92.5,100,105,105,-40,-40,40,40,-122.5,122.5,130,130,275
2,Leslie Kiletico,Varsity,F,SBD,Single-ply,48,Ehret,LA,47.6,97.5,105,-112.5,105,45,52.5,57.5,57.5,102.5,112.5,-117.5,112.5,275
3,Chelsea Richard,Varsity,F,SBD,Single-ply,48,Bishop Sullivan,LA,46.45,100,-105,-105,100,42.5,47.5,-57.5,47.5,100,112.5,120,120,267.5
4,Yvette Murrieta,Varsity,F,SBD,Single-ply,48,Del Valle,TX,47.15,80,-90,90,90,47.5,50,52.5,52.5,107.5,115,-120,115,257.5
5,Megan Bruischart,Varsity,F,SBD,Single-ply,48,Plainwell,MI,46.55,80,-92.5,97.5,97.5,40,47.5,52.5,52.5,80,92.5,100,100,250
6,Lacie Ryland,Varsity,F,SBD,Single-ply,48,Alexandria SH,LA,47.2,90,-92.5,-92.5,90,42.5,-45,-45,42.5,102.5,107.5,112.5,112.5,245
7,Michelle Weltzien,Varsity,F,SBD,Single-ply,48,GET,WI,46.55,82.5,87.5,-92.5,87.5,40,-50,-50,40,90,105,110,110,237.5
8,Melinda Stonacek,Varsity,F,SBD,Single-ply,48,Clarkson,NE,47.3,65,80,-92.5,80,40,45,50,50,80,92.5,105,105,235
9,Margaret Hendricks,Varsity,F,SBD,Single-ply,48,Bishop Sullivan,LA,46.95,-80,80,-87.5,80,40,47.5,-50,47.5,92.5,97.5,-107.5,97.5,225
10,Mikaela Sramek,Varsity,F,SBD,Single-ply,48,Valley,NE,46.95,60,-75,-75,60,32.5,37.5,-42.5,37.5,90,-105,-105,90,187.5
DQ,Kat Leggett,Varsity,F,SBD,Single-ply,48,Del Valle,TX,46.15,-102.5,-107.5,-107.5,,,,,,,,,,
DQ,Ashley Warren,Varsity,F,SBD,Single-ply,48,Alexandria SH,LA,47.25,-112.5,-112.5,-112.5,,,,,,,,,,
1,Carly Nogle,Varsity,F,SBD,Single-ply,52,Plainwell,MI,51.7,125,-137.5,137.5,137.5,67.5,72.5,-77.5,72.5,142.5,160,-165.5,160,370
2,Stephanie Nick,Varsity,F,SBD,Single-ply,52,Horlick HS,WI,51.75,105,112.5,-115,112.5,60,-65,65,65,137.5,-145,-145,137.5,315
3,Lauren Houle,Varsity,F,SBD,Single-ply,52,Neenah HS,WI,51.05,107.5,115,122.5,122.5,-52.5,-52.5,52.5,52.5,120,130,-137.5,130,305
4,Stephanie Rodriguez,Varsity,F,SBD,Single-ply,52,Del Valle,TX,51.05,100,110,-117.5,110,60,65,-67.5,65,120,127.5,-137.5,127.5,302.5
5,Brandy Waguespack,Varsity,F,SBD,Single-ply,52,East Ascension HS,LA,50.1,102.5,107.5,112.5,112.5,42.5,50,-52.5,50,110,122.5,127.5,127.5,290
6,Rachel Pittman,Varsity,F,SBD,Single-ply,52,GET,WI,50.4,85,97.5,-102.5,97.5,50,57.5,-62.5,57.5,105,122.5,-137.5,122.5,277.5
7,Laura Willis,Varsity,F,SBD,Single-ply,52,Alexandria SH,LA,50.45,85,92.5,-97.5,92.5,40,45,47.5,47.5,102.5,-107.5,-110,102.5,242.5
8,Megan Payne,Varsity,F,SBD,Single-ply,52,Alexandria SH,LA,51.05,87.5,-95,95,95,37.5,42.5,-45,42.5,90,100,-105,100,237.5
9,Saida Rodriguez,Varsity,F,SBD,Single-ply,52,Del Valle,TX,50.3,85,87.5,-90,87.5,42.5,45,-50,45,95,-100,100,100,232.5
10,Rachel Touchet,Varsity,F,SBD,Single-ply,52,Bishop Sullivan,LA,51.55,77.5,87.5,-92.5,87.5,37.5,42.5,-45,42.5,92.5,-100,-100,92.5,222.5
11,Cami VanMeueren,Varsity,F,SBD,Single-ply,52,Stanton HS,NE,50.75,65,75,-100,75,40,-45,-45,40,80,100,-130,100,215
12,Sarah Casperson,Varsity,F,SBD,Single-ply,52,Neenah HS,WI,50.85,75,-80,-80,75,32.5,-37.5,-37.5,32.5,107.5,-112.5,-112.5,107.5,215
DQ,Nicole Lindsay,Varsity,F,SBD,Single-ply,52,Northlake Christian,LA,50.65,-87.5,-92.5,-92.5,,,,,,,,,,
1,Andrea Motter,Varsity,F,SBD,Single-ply,56,Plainwell,MI,55.4,135,147.5,160,160,65,-70,-70,65,110,120,-127.5,120,345
2,Stephanie Baer,Varsity,F,SBD,Single-ply,56,GET,WI,54.5,105,-120,120,120,-50,50,55,55,120,132.5,135,135,310
3,Jackie Bohannon,Varsity,F,SBD,Single-ply,56,Del Valle,TX,55.9,105,110,117.5,117.5,60,-65,65,65,117.5,122.5,-130,122.5,305
4,Cn'e Sneed,Varsity,F,SBD,Single-ply,56,Alexandria SH,LA,54.75,-110,-110,110,110,45,-47.5,47.5,47.5,122.5,127.5,135,135,292.5
5,Andrea Seeling,Varsity,F,SBD,Single-ply,56,Alexandria SH,LA,54.85,105,-110,-110,105,50,-52.5,-52.5,50,120,127.5,135,135,290
6,Meghan Jovanovich,Varsity,F,SBD,Single-ply,56,Neenah HS,WI,55.7,125,127.5,-132.5,127.5,52.5,-57.5,-57.5,52.5,105,-115,-117.5,105,285
7,Brittni Kallemeyn,Varsity,F,SBD,Single-ply,56,Lincoln Lutheran,NE,54.35,85,92.5,100,100,42.5,50,-55,50,87.5,100,107.5,107.5,257.5
8,Jill Schooley,Varsity,F,SBD,Single-ply,56,Neenah HS,WI,54.7,-100,-100,100,100,-37.5,-40,40,40,112.5,117.5,-125,117.5,257.5
9,Danielle Cross,Varsity,F,SBD,Single-ply,56,Necedah,WI,52.1,95,-102.5,-110,95,42.5,45,-50,45,102.5,107.5,112.5,112.5,252.5
10,Raquel Tapia,Varsity,F,SBD,Single-ply,56,Alexandria SH,LA,54.8,77.5,82.5,87.5,87.5,42.5,45,47.5,47.5,100,107.5,112.5,112.5,247.5
11,Lacey Bantz,Varsity,F,SBD,Single-ply,56,Southeast Consolidated,NE,56,65,77.5,85,85,37.5,45,50,50,-92.5,92.5,-115,92.5,227.5
12,Heather Schaufenbil,Varsity,F,SBD,Single-ply,56,GET,WI,54.45,75,-90,90,90,35,42.5,-50,42.5,85,-102.5,-102.5,85,217.5
13,Laura Weaver,Varsity,F,SBD,Single-ply,56,Alexandria SH,LA,52.85,-75,75,-85,75,35,37.5,-40,37.5,87.5,-92.5,92.5,92.5,205
DQ,Lindsay Bennett,Varsity,F,SBD,Single-ply,56,Bishop Sullivan,LA,55.05,75,-80,-80,75,-40,-40,-40,,,,,,
DQ,Kim Fischer,Varsity,F,SBD,Single-ply,56,Garden County HS,NE,55.05,-87.5,-87.5,-87.5,,-40,,,,,,,,
1,Molly Dennany,Varsity,F,SBD,Single-ply,60,Plainwell,MI,59.35,135,-145,145,145,75,82.5,-90,82.5,130,147.5,152.5,152.5,380
2,Angelle Matt,Varsity,F,SBD,Single-ply,60,Holy Savior Menard Central,LA,58.9,130,140,147.5,147.5,67.5,-72.5,75,75,145,155,-160,155,377.5
3,Lindsay Vlachakis,Varsity,F,SBD,Single-ply,60,Neenah HS,WI,58.2,-125,125,-135,125,52.5,57.5,62.5,62.5,135,147.5,-150,147.5,335
4,Lisa DeSalvo,Varsity,F,SBD,Single-ply,60,Northlake Christian,LA,59.8,-105,105,117.5,117.5,57.5,62.5,-65,62.5,122.5,137.5,-142.5,137.5,317.5
5,Stefanie Jacobson,Varsity,F,SBD,Single-ply,60,Neenah HS,WI,58.8,97.5,-107.5,110,110,55,-60,-60,55,115,125,-135,125,290
6,Janelle Rasmussen,Varsity,F,SBD,Single-ply,60,Neenah HS,WI,58.9,97.5,-107.5,-107.5,97.5,55,60,-62.5,60,122.5,132.5,-142.5,132.5,290
7,Theresa Maatman,Varsity,F,SBD,Single-ply,60,Lincoln HS,WI,58.1,100,115,117.5,117.5,40,45,-47.5,45,102.5,117.5,125,125,287.5
8,Sheilla Docken,Varsity,F,SBD,Single-ply,60,GET,WI,59.4,97.5,-102.5,105,105,50,60,65,65,105,117.5,-130,117.5,287.5
9,Jenna Gangestad,Varsity,F,SBD,Single-ply,60,Valley,NE,57.8,105,-115,-115,105,52.5,55,-57.5,55,110,125,-147.5,125,285
10,Marissa Lopez,Varsity,F,SBD,Single-ply,60,Del Valle,TX,58.8,-90,100,-110,100,50,57.5,60,60,97.5,105,110,110,270
11,Natasha Mott,Varsity,F,SBD,Single-ply,60,Alexandria SH,LA,59.7,100,-115,-115,100,42.5,47.5,50,50,110,120,-125,120,270
12,Laura Robichaux,Varsity,F,SBD,Single-ply,60,Alexandria SH,LA,58.4,87.5,100,-105,100,35,40,42.5,42.5,82.5,90,97.5,97.5,240
13,Kari Robichaux,Varsity,F,SBD,Single-ply,60,Alexandria SH,LA,58.7,80,90,95,95,37.5,-42.5,42.5,42.5,92.5,100,-107.5,100,237.5
14,Amanda McDaniel,Varsity,F,SBD,Single-ply,60,Bishop Sullivan,LA,58.35,82.5,-87.5,87.5,87.5,40,-47.5,-47.5,40,95,102.5,-110,102.5,230
1,Kala McCauley,Varsity,F,SBD,Single-ply,67.5,Plainwell,MI,66.75,-135,135,152.5,152.5,70,77.5,82.5,82.5,135,150,157.5,157.5,392.5
2,Amber Mesik,Varsity,F,SBD,Single-ply,67.5,Plainwell,MI,62.75,-120,125,-140,125,65,72.5,-77.5,72.5,142.5,-160,160,160,357.5
3,Ashley Proctor,Varsity,F,SBD,Single-ply,67.5,GET,WI,67,122.5,135,142.5,142.5,55,65,-70,65,122.5,145,-150,145,352.5
4,Stacy Vlachakis,Varsity,F,SBD,Single-ply,67.5,Neenah HS,WI,62.3,130,-145,145,145,55,60,-67.5,60,130,145,-147.5,145,350
5,Emily Steck,Varsity,F,SBD,Single-ply,67.5,Holmen HS,WI,65.8,125,135,-142.5,135,47.5,52.5,55,55,130,140,-152.5,140,330
6,Tiffany Walls,Varsity,F,SBD,Single-ply,67.5,Alexandria SH,LA,65.85,-117.5,117.5,-127.5,117.5,-50,50,-57.5,50,122.5,130,135,135,302.5
7,Kate Savoie,Varsity,F,SBD,Single-ply,67.5,Bishop Sullivan,LA,64.45,112.5,-122.5,-125,112.5,52.5,-57.5,-57.5,52.5,122.5,-132.5,132.5,132.5,297.5
8,Ashley Bordeaux,Varsity,F,SBD,Single-ply,67.5,Neenah HS,WI,65.1,107.5,-112.5,-112.5,107.5,55,-60,-60,55,135,-145,-145,135,297.5
9,Mandy Martin,Varsity,F,SBD,Single-ply,67.5,GET,WI,63.5,85,97.5,105,105,45,52.5,-55,52.5,112.5,127.5,135,135,292.5
10,Sharhonda Bell,Varsity,F,SBD,Single-ply,67.5,Zeb Vance HS,NC,64.15,85,-110,-110,85,-65,70,-77.5,70,137.5,-157.5,-157.5,137.5,292.5
11,Stacy Jarred,Varsity,F,SBD,Single-ply,67.5,Alexandria SH,LA,66.45,100,-105,105,105,50,-55,-55,50,120,-130,-130,120,275
12,Kathleen Longwell,Varsity,F,SBD,Single-ply,67.5,GET,WI,64.75,77.5,95,100,100,40,47.5,-50,47.5,102.5,115,117.5,117.5,265
13,Megan Karow,Varsity,F,SBD,Single-ply,67.5,GET,WI,63.65,77.5,87.5,100,100,37.5,45,50,50,82.5,97.5,105,105,255
14,Kayla Ward,Varsity,F,SBD,Single-ply,67.5,Holmen HS,WI,62.35,85,-95,-110,85,37.5,40,-42.5,40,90,97.5,-105,97.5,222.5
1,Devan Doan,Varsity,F,SBD,Single-ply,75,Berlin HS,WI,70.6,130,137.5,-145,137.5,92.5,-100,100,100,127.5,135,140,140,377.5
2,Natalie Pfoff,Varsity,F,SBD,Single-ply,75,Ridgeview HS,IL,73.85,-130,130,142.5,142.5,65,72.5,-77.5,72.5,-132.5,132.5,140,140,355
3,Taylor Rice,Varsity,F,SBD,Single-ply,75,Burke HS,NE,74.15,127.5,137.5,-142.5,137.5,52.5,57.5,-60,57.5,140,147.5,160,160,355
4,Sarah Lind,Varsity,F,SBD,Single-ply,75,Neenah HS,WI,70.55,-127.5,127.5,-137.5,127.5,62.5,70,-77.5,70,132.5,142.5,-150,142.5,340
5,Patty White,Varsity,F,SBD,Single-ply,75,Plainwell,MI,74.7,-120,120,130,130,70,77.5,80,80,110,122.5,127.5,127.5,337.5
6,Randi Smith,Varsity,F,SBD,Single-ply,75,Bishop Sullivan,LA,70.65,117.5,132.5,137.5,137.5,55,-60,65,65,112.5,122.5,-130,122.5,325
7,Erica Murillo,Varsity,F,SBD,Single-ply,75,Horlick HS,WI,72.3,100,107.5,112.5,112.5,72.5,-80,-80,72.5,122.5,132.5,137.5,137.5,322.5
8,Jenni Oanes,Varsity,F,SBD,Single-ply,75,GET,WI,69.4,105,112.5,-122.5,112.5,47.5,57.5,62.5,62.5,112.5,122.5,130,130,305
9,Autum Brush,Varsity,F,SBD,Single-ply,75,GET,WI,69.1,70,85,97.5,97.5,45,52.5,60,60,82.5,107.5,120,120,277.5
10,Ashley Headrick,Varsity,F,SBD,Single-ply,75,Holmen HS,WI,72.85,-87.5,-92.5,95,95,42.5,47.5,-52.5,47.5,95,-105,107.5,107.5,250
DQ,Rachel Moore,Varsity,F,SBD,Single-ply,75,Plainwell,MI,70.55,-102.5,-110,-110,,,,,,,,,,
1,Traci Till,Varsity,F,SBD,Single-ply,82.5,Alexandria SH,LA,77.9,150,162.5,-167.5,162.5,70,77.5,-82.5,77.5,160,167.5,177.5,177.5,417.5
2,Amy Hocutt,Varsity,F,SBD,Single-ply,82.5,Horlick HS,WI,79,145,-152.5,-155,145,85,-90,90,90,160,167.5,-175,167.5,402.5
3,Ashley Porche,Varsity,F,SBD,Single-ply,82.5,Bishop Sullivan,LA,80.6,-142.5,142.5,-155,142.5,-72.5,72.5,77.5,77.5,132.5,140,-145,140,360
4,Amorett Kummer,Varsity,F,SBD,Single-ply,82.5,Phillips HS,WI,81.45,130,140,-147.5,140,57.5,65,70,70,127.5,140,147.5,147.5,357.5
5,Lindsay Burdick,Varsity,F,SBD,Single-ply,82.5,Del Valle,TX,82,132.5,-137.5,-137.5,132.5,65,70,-72.5,70,135,142.5,150,150,352.5
6,Jenny Majdan,Varsity,F,SBD,Single-ply,82.5,Plainwell,MI,75.35,97.5,105,112.5,112.5,50,57.5,-62.5,57.5,127.5,142.5,150,150,320
7,Lindsey Lebakken,Varsity,F,SBD,Single-ply,82.5,GET,WI,78,100,112.5,-120,112.5,35,55,-60,55,122.5,140,-147.5,140,307.5
8,Katie Ecker,Varsity,F,SBD,Single-ply,82.5,Gross,NE,80.35,112.5,-115,117.5,117.5,47.5,-50,-50,47.5,120,127.5,-135,127.5,292.5
1,Anna Bierce,Varsity,F,SBD,Single-ply,90,Holmen HS,WI,89.05,167.5,185,192.5,192.5,85,90,-92.5,90,137.5,160,-172.5,160,442.5
2,Mindy Guidry,Varsity,F,SBD,Single-ply,90,Covington HS,LA,84.65,145,-162.5,-167.5,145,75,-85,-85,75,152.5,172.5,-182.5,172.5,392.5
3,Christina Shavers,Varsity,F,SBD,Single-ply,90,Del Valle,TX,89.15,-135,135,142.5,142.5,65,67.5,-70,67.5,140,150,157.5,157.5,367.5
4,Tiffany Bayer,Varsity,F,SBD,Single-ply,90,Plainwell,MI,83,120,132.5,142.5,142.5,57.5,62.5,-67.5,62.5,132.5,147.5,-155,147.5,352.5
5,Brittany Burdick,Varsity,F,SBD,Single-ply,90,Del Valle,TX,89.45,122.5,130,135,135,65,72.5,77.5,77.5,122.5,-127.5,130,130,342.5
6,Miranda Newcomb,Varsity,F,SBD,Single-ply,90,Alexandria SH,LA,85.05,-125,125,132.5,132.5,-60,60,65,65,115,122.5,-135,122.5,320
7,Aurora Meunier,Varsity,F,SBD,Single-ply,90,GET,WI,89.25,110,125,130,130,52.5,65,72.5,72.5,110,-130,-130,110,312.5
8,Megan Baldauf,Varsity,F,SBD,Single-ply,90,Neenah HS,WI,88,-122.5,-122.5,122.5,122.5,47.5,-52.5,52.5,52.5,102.5,-117.5,-117.5,102.5,277.5
1,Karen Metzner,Varsity,F,SBD,Single-ply,90+,Neenah HS,WI,98.65,170,-177.5,-177.5,170,90,-100,100,100,167.5,175,-185,175,445
2,Erika Headrick,Varsity,F,SBD,Single-ply,90+,Holmen HS,WI,142.3,170,180,187.5,187.5,82.5,92.5,-97.5,92.5,165,-182.5,-182.5,165,445
3,Elise Moran,Varsity,F,SBD,Single-ply,90+,Bishop Sullivan,LA,115.2,142.5,155,162.5,162.5,72.5,77.5,-82.5,77.5,137.5,150,157.5,157.5,397.5
4,Shea Wallus,Varsity,F,SBD,Single-ply,90+,Plainwell,MI,145.95,130,145,-150,145,100,110,-117.5,110,122.5,137.5,-152.5,137.5,392.5
5,Meredith Gertner,Varsity,F,SBD,Single-ply,90+,Mullen HS,CO,95.9,127.5,135,-140,135,80,85,-90,85,132.5,145,155,155,375
6,Lacey Weaver,Varsity,F,SBD,Single-ply,90+,Alexandria SH,LA,99.5,110,117.5,-125,117.5,55,-60,-60,55,120,125,-142.5,125,297.5
1,Mike Hafenbrack,Varsity,M,SBD,Single-ply,52,Yutan HS,NE,51.2,147.5,-160,-160,147.5,82.5,87.5,92.5,92.5,170,-180,180,180,420
2,Eric Kratz #2,Varsity,M,SBD,Single-ply,52,Pennridge,PA,50.5,105,-112.5,-112.5,105,70,75,-77.5,75,132.5,145,152.5,152.5,332.5
3,Robert Blunschi,Varsity,M,SBD,Single-ply,52,Bishop Sullivan,LA,51.9,120,-132.5,-132.5,120,57.5,62.5,-67.5,62.5,135,147.5,-152.5,147.5,330
DQ,Jay Cruse,Varsity,M,SBD,Single-ply,52,Alexandria SH,LA,51.6,-107.5,-107.5,-107.5,,,,,,,,,,
1,Timothy Cross,Varsity,M,SBD,Single-ply,56,Necedah,WI,52.8,132.5,142.5,145,145,77.5,82.5,85,85,132.5,137.5,-140,137.5,367.5
2,Josh Vyverman,Varsity,M,SBD,Single-ply,56,Plainwell,MI,54.8,97.5,-110,-110,97.5,70,77.5,-82.5,77.5,130,147.5,-155,147.5,322.5
3,Cory Welch,Varsity,M,SBD,Single-ply,56,Plainwell,MI,55.1,102.5,-112.5,-112.5,102.5,65,-72.5,-72.5,65,112.5,120,130,130,297.5
DQ,Cody Ardoin,Varsity,M,SBD,Single-ply,56,Alexandria SH,LA,55.9,-100,-100,-100,,,,,,,,,,
1,Vincent Niedoliwka,Varsity,M,SBD,Single-ply,60,Plainwell,MI,59.9,187.5,-207.5,-207.5,187.5,122.5,135,-140.5,135,212.5,-230,-230,212.5,535
2,Aaron Phillips #2,Varsity,M,SBD,Single-ply,60,Horlick HS,WI,58.6,160,170,-177.5,170,97.5,102.5,-107.5,102.5,177.5,185,-187.5,185,457.5
3,Glenn France,Varsity,M,SBD,Single-ply,60,Slidell HS,LA,59.7,160,175,-182.5,175,75,82.5,85,85,170,185,-200,185,445
4,Kyle Semerau,Varsity,M,SBD,Single-ply,60,Marathon HS,WI,59.5,135,-145,145,145,95,-100,100,100,177.5,185,-197.5,185,430
5,Dave Karras,Varsity,M,SBD,Single-ply,60,Mullen HS,CO,58.3,-137.5,147.5,155,155,90,-95,-95,90,155,-170,170,170,415
6,Josh Oliver,Varsity,M,SBD,Single-ply,60,Neenah HS,WI,58.8,147.5,-162.5,-162.5,147.5,75,80,85,85,170,177.5,-185,177.5,410
7,Cody Olson,Varsity,M,SBD,Single-ply,60,Alexandria SH,LA,59.4,107.5,117.5,130,130,72.5,77.5,-80,77.5,140,147.5,155,155,362.5
1,Nathan Pinkerman,Varsity,M,SBD,Single-ply,67.5,Symmes Valley,OH,67.3,190,-202.5,-202.5,190,125,137.5,-142.5,137.5,215,-230,-230,215,542.5
2,Travis Kibler,Varsity,M,SBD,Single-ply,67.5,Plainwell,MI,65.5,165,187.5,192.5,192.5,90,-102.5,-102.5,90,202.5,222.5,230,230,512.5
3,Jeff Zupan,Varsity,M,SBD,Single-ply,67.5,Marquette Univ. HS,WI,65.3,-182.5,182.5,-207.5,182.5,-105,105,-107.5,105,207.5,-217.5,-217.5,207.5,495
4,Brentley Marchand,Varsity,M,SBD,Single-ply,67.5,East Ascension HS,LA,66.4,167.5,185,195,195,75,87.5,97.5,97.5,170,185,195,195,487.5
5,Jonathan Norwood,Varsity,M,SBD,Single-ply,67.5,St. Xavier HS,KY,66.2,162.5,175,-180,175,115,122.5,-127.5,122.5,165,-172.5,172.5,172.5,470
6,Dustin Miller,Varsity,M,SBD,Single-ply,67.5,Yutan HS,NE,66.8,145,-152.5,152.5,152.5,-112.5,112.5,115,115,172.5,187.5,197.5,197.5,465
7,Chad Fhlug,Varsity,M,SBD,Single-ply,67.5,Chilton HS,WI,65,-155,155,167.5,167.5,-92.5,92.5,-95,92.5,195,202.5,-210,202.5,462.5
8,Bill Black,Varsity,M,SBD,Single-ply,67.5,GET,WI,66.4,162.5,-177.5,-182.5,162.5,87.5,-97.5,97.5,97.5,162.5,185,192.5,192.5,452.5
9,Jason Thomas,Varsity,M,SBD,Single-ply,67.5,Plainwell,MI,65.3,142.5,160,-165,160,92.5,-102.5,102.5,102.5,165,187.5,-192.5,187.5,450
10,Christopher Rini,Varsity,M,SBD,Single-ply,67.5,Alexandria SH,LA,67,140,155,-162.5,155,82.5,90,92.5,92.5,170,180,195,195,442.5
11,Charles Timm,Varsity,M,SBD,Single-ply,67.5,GET,WI,66.8,135,150,-160,150,95,105,110,110,145,-170,170,170,430
12,Paul Beiser,Varsity,M,SBD,Single-ply,67.5,Neenah HS,WI,66,150,162.5,-170,162.5,-90,90,-95,90,170,-180,-180,170,422.5
13,Greg Barth,Varsity,M,SBD,Single-ply,67.5,Bishop Sullivan,LA,66.8,147.5,155,-160,155,77.5,-85,-85,77.5,175,-185,185,185,417.5
14,David Shepherd #3,Varsity,M,SBD,Single-ply,67.5,Valley,NE,66.2,150,-170,-170,150,82.5,-92.5,-92.5,82.5,170,182.5,-185,182.5,415
15,Jeffery Peterson,Varsity,M,SBD,Single-ply,67.5,Valley,NE,67.3,150,-160,-160,150,92.5,-105,-105,92.5,155,160,162.5,162.5,405
DQ,Jay Gould,Varsity,M,SBD,Single-ply,67.5,Valley,NE,65.7,-137.5,137.5,-145,137.5,-110,-110,-110,,,,,,
1,Wayne Veal Jr,Varsity,M,SBD,Single-ply,75,Alexandria SH,LA,68.8,200,217.5,-227.5,217.5,110,117.5,122.5,122.5,227.5,245,262.5,262.5,602.5
2,Cole Fritsch,Varsity,M,SBD,Single-ply,75,GET,WI,71.75,160,175,185,185,100,120,127.5,127.5,195,-220,220,220,532.5
3,Daniel LePert,Varsity,M,SBD,Single-ply,75,Plainwell,MI,70.75,187.5,-202.5,-202.5,187.5,112.5,125,132.5,132.5,187.5,205,-212.5,205,525
4,Charles Weatherston,Varsity,M,SBD,Single-ply,75,Horlick HS,WI,73.25,200,-207.5,207.5,207.5,112.5,-117.5,-117.5,112.5,-205,-205,205,205,525
5,Marco DiBiasi,Varsity,M,SBD,Single-ply,75,Neenah HS,WI,69.7,175,185,-190,185,100,107.5,-110,107.5,-210,210,-232.5,210,502.5
6,Adam Ausen,Varsity,M,SBD,Single-ply,75,GET,WI,70.95,167.5,187.5,192.5,192.5,90,100,-110,100,167.5,192.5,200,200,492.5
7,Matt Brede,Varsity,M,SBD,Single-ply,75,Osceola HS,WI,74,165,-177.5,-177.5,165,85,92.5,-97.5,92.5,220,227.5,-237.5,227.5,485
8,Rob Hankey,Varsity,M,SBD,Single-ply,75,Osceola HS,WI,73.3,-165,165,-182.5,165,115,122.5,-127.5,122.5,182.5,195,-205,195,482.5
9,Adam Nagele,Varsity,M,SBD,Single-ply,75,Bartlesville HS,OK,72.2,150,175,-190,175,87.5,-97.5,102.5,102.5,152.5,175,195,195,472.5
10,Matt Cross,Varsity,M,SBD,Single-ply,75,Alexandria SH,LA,70.35,175,187.5,-192.5,187.5,102.5,-112.5,-112.5,102.5,170,180,-185,180,470
11,Dan Coxhead,Varsity,M,SBD,Single-ply,75,Pennridge,PA,73.15,-155,155,157.5,157.5,102.5,110,-112.5,110,185,192.5,-200,192.5,460
12,Mike Komperud,Varsity,M,SBD,Single-ply,75,GET,WI,69.05,-167.5,172.5,-185,172.5,85,-97.5,97.5,97.5,165,182.5,187.5,187.5,457.5
13,Trey Lane,Varsity,M,SBD,Single-ply,75,Alexandria SH,LA,74.55,162.5,-177.5,-177.5,162.5,95,100,107.5,107.5,165,177.5,182.5,182.5,452.5
14,Chris Hurt,Varsity,M,SBD,Single-ply,75,Necedah,WI,69,160,162.5,165,165,85,92.5,-97.5,92.5,167.5,175,177.5,177.5,435
15,Kyle Nelson,Varsity,M,SBD,Single-ply,75,GET,WI,74,-135,135,-155,135,85,-97.5,-100,85,175,200,-207.5,200,420
1,Ryan Keathley,Varsity,M,SBD,Single-ply,82.5,Plainwell,MI,80.1,220,242.5,252.5,252.5,142.5,157.5,162.5,162.5,-222.5,245,252.5,252.5,667.5
2,Cory Saltzman,Varsity,M,SBD,Single-ply,82.5,Plainwell,MI,81.8,212.5,237.5,250,250,122.5,137.5,-142.5,137.5,-232.5,232.5,-282.5,232.5,620
3,Luke Savoie,Varsity,M,SBD,Single-ply,82.5,Bishop Sullivan,LA,79.25,212.5,220,-227.5,220,105,112.5,-115,112.5,-220,220,235,235,567.5
4,Seth Holcomb,Varsity,M,SBD,Single-ply,82.5,Arcadia Public,NE,81.3,172.5,-185,185,185,82.5,87.5,92.5,92.5,230,-245,-245,230,507.5
5,Shane Oakley,Varsity,M,SBD,Single-ply,82.5,Mullen HS,CO,79.95,182.5,195,-197.5,195,87.5,92.5,-100,92.5,202.5,212.5,-225,212.5,500
6,Jeremy Van Meter,Varsity,M,SBD,Single-ply,82.5,Necedah,WI,80,175,187.5,195,195,92.5,-100,105,105,187.5,200,-210,200,500
7,Dustin Wenger,Varsity,M,SBD,Single-ply,82.5,GET,WI,79.7,165,-177.5,177.5,177.5,95,107.5,117.5,117.5,155,182.5,192.5,192.5,487.5
8,Dan Lebakken,Varsity,M,SBD,Single-ply,82.5,Holmen HS,WI,79.75,185,-197.5,-197.5,185,105,110,-112.5,110,165,-182.5,-182.5,165,460
9,Tanner Smith,Varsity,M,SBD,Single-ply,82.5,GET,WI,76.85,-165,165,-182.5,165,75,85,-97.5,85,185,205,-220,205,455
1,Derek Brixius,Varsity,M,SBD,Single-ply,90,Manitowoc,WI,87.8,230,242.5,-250,242.5,145,157.5,160,160,242.5,255,-260,255,657.5
2,Jevon Ciciliot,Varsity,M,SBD,Single-ply,90,Parkland,PA,89.65,217.5,232.5,235,235,140,147.5,152.5,152.5,227.5,245,-252.5,245,632.5
3,Cardyl Trionfante,Varsity,M,SBD,Single-ply,90,Minot HS,ND,88.85,210,220,225,225,125,-132.5,137.5,137.5,230,260,-267.5,260,622.5
4,Brian Jarecki,Varsity,M,SBD,Single-ply,90,Lindsay Holy Family,NE,86.95,220,232.5,237.5,237.5,127.5,-132.5,132.5,132.5,215,225,230,230,600
5,Nate Towner,Varsity,M,SBD,Single-ply,90,GET,WI,87.35,192.5,215,225,225,115,130,137.5,137.5,205,232.5,-240,232.5,595
6,Garrett Halphen,Varsity,M,SBD,Single-ply,90,Bishop Sullivan,LA,88.5,-217.5,-217.5,217.5,217.5,-140,140,-147.5,140,227.5,-240,-240,227.5,585
7,Simon Mitchell,Varsity,M,SBD,Single-ply,90,Mullen HS,CO,89.75,190,200,215,215,102.5,112.5,117.5,117.5,222.5,240,-247.5,240,572.5
8,Jeff Eberenz,Varsity,M,SBD,Single-ply,90,St. Xavier HS,KY,89.6,205,-220,220,220,127.5,132.5,-137.5,132.5,205,217.5,-222.5,217.5,570
9,Ryan Meninga,Varsity,M,SBD,Single-ply,90,Plainwell,MI,88.95,-195,-195,195,195,110,-120,120,120,210,-237.5,245,245,560
10,Jeremy Coutee,Varsity,M,SBD,Single-ply,90,Alexandria SH,LA,84.25,200,-212.5,-215,200,110,117.5,122.5,122.5,215,225,235,235,557.5
DQ,Nicholas Hobbins,Varsity,M,SBD,Single-ply,90,Lapeer West HS,MI,89.75,172.5,192.5,-205,192.5,150,-177.5,,150,,,,,
1,Garet Koxlien,Varsity,M,SBD,Single-ply,100,GET,WI,99.6,215,237.5,247.5,247.5,110,117.5,-125,117.5,215,237.5,255,255,620
2,Andres Pettis,Varsity,M,SBD,Single-ply,100,Marquette Univ HS,WI,95.1,222.5,240,-247.5,240,137.5,-150,-150,137.5,227.5,240,-242.5,240,617.5
3,Richard Roberts #3,Varsity,M,SBD,Single-ply,100,Mauston,WI,96.65,200,217.5,-227.5,217.5,120,-130,130,130,215,227.5,-235,227.5,575
4,Brandon Clark,Varsity,M,SBD,Single-ply,100,Plainwell,MI,97,182.5,205,210,210,137.5,152.5,160,160,170,187.5,197.5,197.5,567.5
5,Joe Anderson,Varsity,M,SBD,Single-ply,100,Plainwell,MI,99.9,180,-200,-200,180,117.5,127.5,132.5,132.5,197.5,220,227.5,227.5,540
6,Chad Hayden,Varsity,M,SBD,Single-ply,100,Valley,NE,97.2,190,-210,-210,190,117.5,127.5,-140,127.5,205,-220,-227.5,205,522.5
7,AJ Bolen,Varsity,M,SBD,Single-ply,100,Alexandria SH,LA,99.05,170,180,-190,180,-90,90,97.5,97.5,207.5,220,-227.5,220,497.5
8,Craig Sipiorski,Varsity,M,SBD,Single-ply,100,Neenah HS,WI,93.6,165,-180,-180,165,-102.5,102.5,-112.5,102.5,222.5,-237.5,-237.5,222.5,490
1,Nick Rasmussen,Varsity,M,SBD,Single-ply,110,Plainwell,MI,107.1,242.5,-260,262.5,262.5,145,150,-157.5,150,255,267.5,-277.5,267.5,680
2,Daniel Eads,Varsity,M,SBD,Single-ply,110,Pope John Paul II HS,LA,100.9,272.5,-285,-285,272.5,117.5,122.5,-127.5,122.5,237.5,247.5,-275,247.5,642.5
3,Chris Gabbert,Varsity,M,SBD,Single-ply,110,Parsons HS,KS,106.2,-250,-255,255,255,137.5,-145,-145,137.5,-237.5,237.5,247.5,247.5,640
4,Nathan Bagley,Varsity,M,SBD,Single-ply,110,Plainwell,MI,108.9,200,220,235,235,130,147.5,155,155,187.5,210,220,220,610
5,Alex Dickinson,Varsity,M,SBD,Single-ply,110,Wheatland HS,WY,104.4,182.5,-207.5,207.5,207.5,182.5,190,-195,190,182.5,210,-227.5,210,607.5
6,Robert Rini,Varsity,M,SBD,Single-ply,110,Alexandria SH,LA,107.7,-220,220,-232.5,220,130,137.5,-142.5,137.5,215,225,227.5,227.5,585
7,Jayson Karnafel,Varsity,M,SBD,Single-ply,110,Abington Heights,PA,106,165,-207.5,-212.5,165,105,-115,115,115,225,245,-272.5,245,525
8,Ervin Tuschel,Varsity,M,SBD,Single-ply,110,GET,WI,103.3,182.5,-205,-205,182.5,-112.5,120,130,130,185,202.5,-210,202.5,515
9,Timothy McGlothlin,Varsity,M,SBD,Single-ply,110,Alexandria SH,LA,101.2,197.5,-207.5,-207.5,197.5,110,117.5,-120,117.5,197.5,-210,-210,197.5,512.5
1,Mike Ryun,Varsity,M,SBD,Single-ply,125,Lincoln HS,WI,116.8,290,322.5,-330,322.5,137.5,147.5,-155,147.5,257.5,267.5,275,275,745
2,Barry Hartman,Varsity,M,SBD,Single-ply,125,Manitowoc,WI,123.8,250,265,-275,265,150,160,-167.5,160,240,250,262.5,262.5,687.5
3,Dan Kennedy,Varsity,M,SBD,Single-ply,125,Sibley,MN,122.7,265,-277.5,-277.5,265,172.5,-180,-180,172.5,232.5,240,-245,240,677.5
4,Frank Lietke,Varsity,M,SBD,Single-ply,125,Walled Lake Central HS,MI,111.5,202.5,-227.5,227.5,227.5,-97.5,97.5,-105,97.5,245,277.5,-280,277.5,602.5
5,David Krupp,Varsity,M,SBD,Single-ply,125,Bellevue East,NE,123,215,235,240,240,-125,130,-140,130,192.5,-202.5,-202.5,192.5,562.5
1,Robert Gotz,Varsity,M,SBD,Single-ply,125+,Holmen HS,WI,133.2,-260,260,292.5,292.5,115,125,-132.5,125,227.5,-250,-250,227.5,645
2,Jered Smiley,Varsity,M,SBD,Single-ply,125+,Wautoma HS,WI,138.8,222.5,242.5,260,260,140,147.5,-155,147.5,205,217.5,-232.5,217.5,625
3,Darrell Landry,Varsity,M,SBD,Single-ply,125+,Slidell HS,LA,136.4,227.5,245,260,260,-145,145,-170,145,160,-177.5,177.5,177.5,582.5
DQ,Matt Selling,Varsity,M,SBD,Single-ply,125+,Westside HS,NE,136.7,-262.5,-262.5,-262.5,,,,,,,,,,
