Place,Name,CyrillicName,Country,BodyweightKg,Bench1Kg,Bench2Kg,Bench3Kg,TotalKg,WeightClassKg,Division,Sex,Event,Equipment,Tested,Squat1Kg,Squat2Kg,Squat3Kg,Deadlift1Kg,Deadlift2Kg,Deadlift3Kg,Best3SquatKg,Best3BenchKg,Best3DeadliftKg,BirthYear
1,Irina Galabir,Ірина Галабір,Ukraine,50,35,40,-45,40,52,Amateur Teen 16-17,F,B,Raw,Yes,,,,,,,,40,,1995
1,Svetlana Fatyukhina,Светлана Фатюхина,Russia,48.6,45,-55,-58,45,52,Amateur Teen 18-19,F,B,Raw,Yes,,,,,,,,45,,1994
1,Olga Yanova,Ольга Янова,Ukraine,55.5,45,50,52.5,52.5,56,Amateur Juniors 20-23,F,B,Raw,Yes,,,,,,,,52.5,,1990
1,Armine Sargsyan,Арміне Саргсян,Ukraine,47.7,35,40,-42.5,40,48,Amateur Open,F,B,Raw,Yes,,,,,,,,40,,1981
1,Nataliya Melnichuk,Наталія Мельничук,Ukraine,51.1,60,65,-67.5,65,52,Amateur Open,F,B,Raw,Yes,,,,,,,,65,,1975
2,Liliya Osadcha,Лілія Осадча,Ukraine,51.8,40,-45,-45,40,52,Amateur Open,F,B,Raw,Yes,,,,,,,,40,,1985
1,Olena Lisenko,Олена Лисенко,Ukraine,54.1,70,72.5,-77.5,72.5,56,Amateur Open,F,B,Raw,Yes,,,,,,,,72.5,,1975
2,Nataliya Mileeva,Наталя Мілеєва,Ukraine,53.9,57.5,60,62.5,62.5,56,Amateur Open,F,B,Raw,Yes,,,,,,,,62.5,,1981
1,Olga Mala,Ольга Мала,Ukraine,58.1,42.5,-45,-45,42.5,60,Amateur Open,F,B,Raw,Yes,,,,,,,,42.5,,1976
1,Tetyana Dudnik,Тетяна Дудник,Ukraine,80,75,82.5,-85,82.5,82.5,Amateur Open,F,B,Raw,Yes,,,,,,,,82.5,,1983
1,Tetyana Dzhivinska,Тетяна Дживінська,Ukraine,87.6,55,60,-62.5,60,90,Amateur Open,F,B,Raw,Yes,,,,,,,,60,,1984
1,Oksana Muzika,Оксана Музика,Ukraine,66.7,65,-70,-70,65,67.5,Amateur Masters 40-44,F,B,Raw,Yes,,,,,,,,65,,1969
1,Irina Tikhonova,Ірина Тихонова,Ukraine,69.7,57.5,62.5,-67.5,62.5,75,Amateur Masters 40-44,F,B,Raw,Yes,,,,,,,,62.5,,1970
1,Nataliya Tsukanova,Наталія Цуканова,Ukraine,79.6,85,90,-95,90,82.5,Amateur Masters 55-59,F,B,Raw,Yes,,,,,,,,90,,1956
1,Olga Mala,Ольга Мала,Ukraine,58.1,42.5,-45,-45,42.5,60,Amateur Military/Fire/Police,F,B,Raw,Yes,,,,,,,,42.5,,1976
1,Viktor Falbiychuk,Віктор Фальбійчук,Ukraine,43,32.5,40,42.5,42.5,44,Amateur Youth 8,M,B,Raw,Yes,,,,,,,,42.5,,2003
1,Mikita Kravets,Микита Кравець,Ukraine,40.6,42.5,47.5,50,50,44,Amateur Sub-Teen 11-12,M,B,Raw,Yes,,,,,,,,50,,2000
1,Igor Starchenko,Ігор Старченко,Ukraine,46.7,40,-42.5,-42.5,40,48,Amateur Sub-Teen 11-12,M,B,Raw,Yes,,,,,,,,40,,2001
1,Dmitro Klimuk,Дмитро Клімук,Ukraine,51.4,57.5,62.5,-65,62.5,52,Amateur Teen 13-15,M,B,Raw,Yes,,,,,,,,62.5,,1998
1,Andriy Prilepa,Андрій Прилепа,Ukraine,56,-57.5,62.5,-65,62.5,56,Amateur Teen 13-15,M,B,Raw,Yes,,,,,,,,62.5,,1997
1,Bogdan Stets,Богдан Стець,Ukraine,66,70,75,-77.5,75,67.5,Amateur Teen 13-15,M,B,Raw,Yes,,,,,,,,75,,1997
2,Artur Sozinov,Артур Созінов,Ukraine,62.3,65,-70,-70,65,67.5,Amateur Teen 13-15,M,B,Raw,Yes,,,,,,,,65,,1998
1,Vladislav Kovalenko,Владислав Коваленко,Ukraine,73.5,105,112.5,120,120,75,Amateur Teen 16-17,M,B,Raw,Yes,,,,,,,,120,,1995
1,Vasiliy Talpe,Василий Талпе,Moldova,58.1,82.5,87.5,-90,87.5,60,Amateur Teen 18-19,M,B,Raw,Yes,,,,,,,,87.5,,1993
1,Oleksandr Adonin,Олександр Адонін,Ukraine,65.7,115,-125,-125,115,67.5,Amateur Juniors 20-23,M,B,Raw,Yes,,,,,,,,115,,1990
1,Valeriy Khorechko,Валерій Хоречко,Ukraine,73.3,155,-162.5,162.5,162.5,75,Amateur Teen 18-19,M,B,Raw,Yes,,,,,,,,162.5,,1992
2,Yuriy Umanets,Юрій Уманець,Moldova,73.8,115,125,132.5,132.5,75,Amateur Teen 18-19,M,B,Raw,Yes,,,,,,,,132.5,,1992
1,Oleg Melnichuk,Олег Мельничук,Ukraine,87.2,117.5,-122.5,-122.5,117.5,90,Amateur Teen 18-19,M,B,Raw,Yes,,,,,,,,117.5,,1994
1,Kaplan Skhalyako,Каплан Схаляко,Russia,51.3,-87.5,87.5,-97.5,87.5,52,Amateur Juniors 20-23,M,B,Raw,Yes,,,,,,,,87.5,,1990
1,Ashot Eganyan,Ашот Єганян,Ukraine,64.9,145,-150,155,155,67.5,Amateur Juniors 20-23,M,B,Raw,Yes,,,,,,,,155,,1990
1,Aslanbek Pchikhachev,Асланбек Пчихачев,Russia,74.9,142.5,147.5,149,149,75,Amateur Juniors 20-23,M,B,Raw,Yes,,,,,,,,149,,1991
2,Sergiy Korol',Сергій Король,Ukraine,70,135,-140,-140,135,75,Amateur Juniors 20-23,M,B,Raw,Yes,,,,,,,,135,,1988
1,Oleksandr Koloskov,Олександр Колосков,Ukraine,80.3,130,150,-160,150,82.5,Amateur Juniors 20-23,M,B,Raw,Yes,,,,,,,,150,,1992
2,Oleksandr Lisovskiy #1,Олександр Лісовський,Ukraine,81,140,-145,145,145,82.5,Amateur Juniors 20-23,M,B,Raw,Yes,,,,,,,,145,,1990
3,Dmitro Gavrilyuk,Дмитро Гаврилюк,Ukraine,81.5,132.5,-137.5,-137.5,132.5,82.5,Amateur Juniors 20-23,M,B,Raw,Yes,,,,,,,,132.5,,1989
1,Denis Akimov,Денис Акимов,Russia,89.6,125,135,,135,90,Amateur Juniors 20-23,M,B,Raw,Yes,,,,,,,,135,,1988
1,Vitaliy Demedyuk,Віталій Демедюк,Ukraine,98.1,140,-147.5,-147.5,140,100,Amateur Juniors 20-23,M,B,Raw,Yes,,,,,,,,140,,1989
1,Kaplan Skhalyako,Каплан Схаляко,Russia,51.3,-87.5,87.5,-97.5,87.5,52,Amateur Open,M,B,Raw,Yes,,,,,,,,87.5,,1990
1,Aleksandr Miroshnichenko #1,Олександр Мирошніченко,Moldova,55.1,107.5,112.5,-117.5,112.5,56,Amateur Open,M,B,Raw,Yes,,,,,,,,112.5,,1987
1,Ashot Eganyan,Ашот Єганян,Ukraine,64.9,145,-150,155,155,67.5,Amateur Open,M,B,Raw,Yes,,,,,,,,155,,1990
2,Bogdan Kunitskiy,Богдан Куницький,Ukraine,66.2,120,-125,-125,120,67.5,Amateur Open,M,B,Raw,Yes,,,,,,,,120,,1987
3,Roman Kostenko,Роман Костенко,Ukraine,64,80,85,87.5,87.5,67.5,Amateur Open,M,B,Raw,Yes,,,,,,,,87.5,,1985
1,Stanislav Milostnoy,Станислав Милостной,Russia,73.9,192.5,197.5,-200,197.5,75,Amateur Open,M,B,Raw,Yes,,,,,,,,197.5,,1978
2,Vasil Maloshik,Василь Малошик,Belarus,73.8,145,150,-152.5,150,75,Amateur Open,M,B,Raw,Yes,,,,,,,,150,,1984
3,Aslanbek Pchikhachev,Асланбек Пчихачев,Russia,74.9,142.5,147.5,149,149,75,Amateur Open,M,B,Raw,Yes,,,,,,,,149,,1991
4,Oleksiy Slyushchenko,Олексій Слющенко,Ukraine,72.8,135,-142.5,-147.5,135,75,Amateur Open,M,B,Raw,Yes,,,,,,,,135,,1984
5,Igor Amelin,Игорь Амелин,Russia,74,130,-137.5,-137.5,130,75,Amateur Open,M,B,Raw,Yes,,,,,,,,130,,1975
6,Vitaliy Torkay,Віталій Торкай,Ukraine,72.4,125,-130,-130,125,75,Amateur Open,M,B,Raw,Yes,,,,,,,,125,,1976
7,Mikola Semikin,Микола Семікін,Ukraine,74.5,105,112.5,-125,112.5,75,Amateur Open,M,B,Raw,Yes,,,,,,,,112.5,,1986
1,Igor Shmorgun,Игорь Шморгун,Russia,80,155,165,-170,165,82.5,Amateur Open,M,B,Raw,Yes,,,,,,,,165,,1983
2,Oleksandr Lisovskiy #1,Олександр Лісовський,Ukraine,81,140,-145,145,145,82.5,Amateur Open,M,B,Raw,Yes,,,,,,,,145,,1990
3,Andriy Dyatlov,Андрій Дятлов,Ukraine,79.1,142.5,-147.5,-147.5,142.5,82.5,Amateur Open,M,B,Raw,Yes,,,,,,,,142.5,,1985
4,Igor Chernenko #3,Ігор Черненко,Ukraine,81.6,127.5,132.5,-142.5,132.5,82.5,Amateur Open,M,B,Raw,Yes,,,,,,,,132.5,,1983
1,Konstyantin Grabovskiy,Констянтин Грабовський,Ukraine,87.4,180,-190,-190,180,90,Amateur Open,M,B,Raw,Yes,,,,,,,,180,,1976
2,Volodimir Migas,Володимир Мигас,Ukraine,84,160,167.5,-172.5,167.5,90,Amateur Open,M,B,Raw,Yes,,,,,,,,167.5,,1975
3,Anatoliy Lopatkin,Анатолій Лопаткін,Ukraine,88.1,150,152.5,-157.5,152.5,90,Amateur Open,M,B,Raw,Yes,,,,,,,,152.5,,1979
4,Andriy Avramenko,Андрій Авраменко,Germany,89.5,-150,-150,150,150,90,Amateur Open,M,B,Raw,Yes,,,,,,,,150,,1977
1,Sergey Mantserov,Сергей Манцеров,Russia,94.8,160,-172.5,172.5,172.5,100,Amateur Open,M,B,Raw,Yes,,,,,,,,172.5,,1970
2,Oleksiy Bondarenko,Олексій Бондаренко,Ukraine,96.4,162.5,167.5,-172.5,167.5,100,Amateur Open,M,B,Raw,Yes,,,,,,,,167.5,,1981
3,Oleksandr Ageenko,Олександр Агеєнко,Ukraine,99,165,-172.5,-175,165,100,Amateur Open,M,B,Raw,Yes,,,,,,,,165,,1976
1,Oleksandr Aleksandrov,Олександр Александров,Ukraine,107.5,170,175,-180,175,110,Amateur Open,M,B,Raw,Yes,,,,,,,,175,,1971
2,Genadiy Larin,Генадій Ларін,Ukraine,104,160,-175,-175,160,110,Amateur Open,M,B,Raw,Yes,,,,,,,,160,,1973
1,Andrey Shmorgun,Андрей Шморгун,Russia,118,170,180,,180,125,Amateur Open,M,B,Raw,Yes,,,,,,,,180,,1984
DD,Sergiy Shumskiy,Сергій Шумський,Ukraine,110.5,150,160,-170,,125,Amateur Open,M,B,Raw,Yes,,,,,,,,160,,1985
1,Oleksandr Shvab,Олександр Шваб,Ukraine,125.5,160,170,177.5,177.5,140,Amateur Open,M,B,Raw,Yes,,,,,,,,177.5,,1976
2,Oleksandr Kalkutin,Олександр Калкутін,Ukraine,127,165,172.5,-177.5,172.5,140,Amateur Open,M,B,Raw,Yes,,,,,,,,172.5,,1965
1,Volodimir Migas,Володимир Мигас,Ukraine,84,160,167.5,-172.5,167.5,90,Amateur Submasters 33-39,M,B,Raw,Yes,,,,,,,,167.5,,1975
1,Oleksandr Ageenko,Олександр Агеєнко,Ukraine,99,165,-172.5,-175,165,100,Amateur Submasters 33-39,M,B,Raw,Yes,,,,,,,,165,,1976
1,Eduard Sotnikov,Эдуард Сотников,Russia,80.6,150,-157.5,-157.5,150,82.5,Amateur Masters 40-44,M,B,Raw,Yes,,,,,,,,150,,1967
2,Volodimir Korenga,Володимир Коренга,Ukraine,79.8,130,135,-140,135,82.5,Amateur Masters 40-44,M,B,Raw,Yes,,,,,,,,135,,1970
1,Yaroslav Falbiychuk,Ярослав Фальбійчук,Ukraine,86.5,140,147.5,-150,147.5,90,Amateur Masters 40-44,M,B,Raw,Yes,,,,,,,,147.5,,1968
1,Sergey Mantserov,Сергей Манцеров,Russia,94.8,160,-172.5,172.5,172.5,100,Amateur Masters 40-44,M,B,Raw,Yes,,,,,,,,172.5,,1970
2,Oleksandr Tolkachev,Олександр Толкачев,Ukraine,98.2,155,162.5,,162.5,100,Amateur Masters 40-44,M,B,Raw,Yes,,,,,,,,162.5,,1970
1,Oleksandr Aleksandrov,Олександр Александров,Ukraine,107.5,170,175,-180,175,110,Amateur Masters 40-44,M,B,Raw,Yes,,,,,,,,175,,1971
2,Ruslan Pilipchuk,Руслан Пилипчук,Ukraine,102.8,155,160,-165,160,110,Amateur Masters 40-44,M,B,Raw,Yes,,,,,,,,160,,1970
3,Dmitro Grigorev #1,Дмитро Григор'єв,Ukraine,101.5,140,-150,-150,140,110,Amateur Masters 40-44,M,B,Raw,Yes,,,,,,,,140,,1971
4,Pavlo Kipnyak,Павло Кіпняк,Ukraine,102.4,130,137.5,-145,137.5,110,Amateur Masters 40-44,M,B,Raw,Yes,,,,,,,,137.5,,1968
1,Petro Pristupa,Петро Приступа,Ukraine,81.7,100,110,120,120,82.5,Amateur Masters 45-49,M,B,Raw,Yes,,,,,,,,120,,1963
1,Yuriy Eleva,Юрій Єлева,Ukraine,103,125,-132.5,-132.5,125,110,Amateur Masters 45-49,M,B,Raw,Yes,,,,,,,,125,,1963
1,Oleksandr Kalkutin,Олександр Калкутін,Ukraine,127,165,172.5,-177.5,172.5,140,Amateur Masters 45-49,M,B,Raw,Yes,,,,,,,,172.5,,1965
1,Yuriy Osadchenko,Юрій Осадченко,Ukraine,80.1,150,-155,155,155,82.5,Amateur Masters 50-54,M,B,Raw,Yes,,,,,,,,155,,1961
1,Mikola Skidanyuk,Микола Скиданюк,Ukraine,85,100,110,115,115,90,Amateur Masters 50-54,M,B,Raw,Yes,,,,,,,,115,,1960
1,Yuriy Filonenko,Юрій Філоненко,Ukraine,89.5,117.5,122.5,-125,122.5,90,Amateur Masters 55-59,M,B,Raw,Yes,,,,,,,,122.5,,1954
1,Volodimir Makovskiy,Володимир Маковський,Ukraine,74.4,87.5,-90,-90,87.5,75,Amateur Masters 60-64,M,B,Raw,Yes,,,,,,,,87.5,,1950
1,Evgeniy Khokhlov,Евгений Хохлов,Ukraine,96.5,130,135,-137.5,135,100,Amateur Masters 60-64,M,B,Raw,Yes,,,,,,,,135,,1948
1,Ivan Paranko,Іван Паранько,Ukraine,66,82.5,-87.5,-90,82.5,67.5,Amateur Masters 65-69,M,B,Raw,Yes,,,,,,,,82.5,,1946
1,Valeriy Gladish,Валерій Гладиш,Ukraine,99.7,90,95,-100,95,100,Amateur Masters 65-69,M,B,Raw,Yes,,,,,,,,95,,1946
1,Oleksandr Koloskov,Олександр Колосков,Ukraine,80.3,130,150,-160,150,82.5,Amateur Military/Fire/Police,M,B,Raw,Yes,,,,,,,,150,,1992
2,Andriy Dyatlov,Андрій Дятлов,Ukraine,79.1,142.5,-147.5,-147.5,142.5,82.5,Amateur Military/Fire/Police,M,B,Raw,Yes,,,,,,,,142.5,,1985
1,Konstyantin Grabovskiy,Констянтин Грабовський,Ukraine,87.4,180,-190,-190,180,90,Amateur Military/Fire/Police,M,B,Raw,Yes,,,,,,,,180,,1976
1,Maryana Naumova,Марьяна Наумова,Russia,48,80,-87.5,87.5,87.5,48,Pro Teen 13-15,F,B,Raw,No,,,,,,,,87.5,,1999
1,Tetyana Kalugina,Тетяна Калугіна,Ukraine,59.5,95,100,-105,100,60,Pro Open,F,B,Raw,No,,,,,,,,100,,1980
1,Lina Zubritska,Ліна Зубрицька,Ukraine,60.6,90,97.5,-102.5,97.5,67.5,Pro Open,F,B,Raw,No,,,,,,,,97.5,,1988
1,Anna Kurkurina,Анна Куркуріна,Ukraine,73.8,120,128.5,130,130,75,Pro Open,F,B,Raw,No,,,,,,,,130,,1966
1,Anna Kurkurina,Анна Куркуріна,Ukraine,73.8,120,128.5,130,130,75,Pro Masters 45-49,F,B,Raw,No,,,,,,,,130,,1966
1,Lyudmila Tsvetkova,Людмила Цветкова,Ukraine,56,47.5,53.5,55,55,56,Pro Masters 50-54,F,B,Raw,No,,,,,,,,55,,1961
1,Dmitro Shchotka,Дмитро Щотка,Ukraine,59.2,55,60,62,62,60,Pro Teen 13-15,M,B,Raw,No,,,,,,,,62,,1997
1,Andriy Panasyuk,Андрій Панасюк,Ukraine,58.7,80,-90,-90,80,60,Pro Teen 16-17,M,B,Raw,No,,,,,,,,80,,1994
1,Ivan Tyutyunnik,Іван Тютюнник,Ukraine,80.4,100,107.5,-112.5,107.5,82.5,Pro Teen 16-17,M,B,Raw,No,,,,,,,,107.5,,1995
1,Vitaliy Gayday,Віталій Гайдай,Ukraine,69.4,95,100,105,105,75,Pro Teen 18-19,M,B,Raw,No,,,,,,,,105,,1994
DQ,Mikola Prishchepa,Микола Прищепа,Ukraine,80.1,-155,-167.5,-167.5,,82.5,Pro Teen 18-19,M,B,Raw,No,,,,,,,,,,1994
1,Dmitro Zarazhevskiy,Дмитро Заражевський,Ukraine,96.8,150,160,162.5,162.5,100,Pro Teen 18-19,M,B,Raw,No,,,,,,,,162.5,,1992
1,Oleksandr Krikun,Олександр Крикун,Ukraine,66.3,135,142.5,150,150,67.5,Pro Juniors 20-23,M,B,Raw,No,,,,,,,,150,,1990
1,Sergiy Bragin,Сергій Брагін,Ukraine,71.4,160,167.5,-170,167.5,75,Pro Juniors 20-23,M,B,Raw,No,,,,,,,,167.5,,1991
1,Vitaliy Sobkovskiy,Віталій Собковський,Ukraine,80.8,125,135,-142.5,135,82.5,Pro Juniors 20-23,M,B,Raw,No,,,,,,,,135,,1991
1,Kyamran Lumedze,Кямран Лумедзе,Ukraine,96.5,180,190,197.5,197.5,100,Pro Juniors 20-23,M,B,Raw,No,,,,,,,,197.5,,1990
2,Vadi Stavila,Вади Ставила,Moldova,97.5,180,192.5,-200,192.5,100,Pro Juniors 20-23,M,B,Raw,No,,,,,,,,192.5,,1990
3,Oleksandr Vishnevskiy,Олександр Вишневський,Ukraine,96.9,162.5,170,175,175,100,Pro Juniors 20-23,M,B,Raw,No,,,,,,,,175,,1988
4,Mikola Krasovskiy,Микола Красовський,Ukraine,99.7,155,160,-162.5,160,100,Pro Juniors 20-23,M,B,Raw,No,,,,,,,,160,,1989
1,Oleksandr Dzhiviryaga,Олександр Дживиряга,Ukraine,108.4,165,170,172.5,172.5,110,Pro Juniors 20-23,M,B,Raw,No,,,,,,,,172.5,,1991
1,Viktor Papushoy,Виктор Папушой,Russia,72.5,150,160,-165,160,75,Pro Open,M,B,Raw,No,,,,,,,,160,,1953
2,Sergiy Melnik,Сергій Мельник,Ukraine,74.5,-150,150,-155,150,75,Pro Open,M,B,Raw,No,,,,,,,,150,,1982
3,Oleksiy Uvarov,Олексій Уваров,Ukraine,74.2,130,140,145,145,75,Pro Open,M,B,Raw,No,,,,,,,,145,,1985
4,Dmitro Cherkay,Дмитро Черкай,Ukraine,71.1,-120,130,-140,130,75,Pro Open,M,B,Raw,No,,,,,,,,130,,1985
1,Vyacheslav Modval,Вячеслав Модвал,Moldova,78.6,180,-190,-190,180,82.5,Pro Open,M,B,Raw,No,,,,,,,,180,,1985
2,Vadim Chekhanyuk,Вадим Чеханюк,Ukraine,82.5,150,157.5,-162.5,157.5,82.5,Pro Open,M,B,Raw,No,,,,,,,,157.5,,1970
3,Boris Trunov,Борис Трунов,Ukraine,81,145,-150,-150,145,82.5,Pro Open,M,B,Raw,No,,,,,,,,145,,1981
4,Oleksandr Pryadko,Олександр Прядко,Ukraine,82.2,140,145,-150,145,82.5,Pro Open,M,B,Raw,No,,,,,,,,145,,1987
1,Oleksandr Shcherbakov,Олександр Щербаков,Moldova,90,200,-212.5,-215,200,90,Pro Open,M,B,Raw,No,,,,,,,,200,,1966
2,Dmitro Lomeyko,Дмитро Ломейко,Ukraine,87.7,170,180,-185,180,90,Pro Open,M,B,Raw,No,,,,,,,,180,,1983
3,Bagner Sharif Zadeh,,Iran,89.1,175,180,-185,180,90,Pro Open,M,B,Raw,No,,,,,,,,180,,1987
4,Volodimir Starchenko,Володимир Старченко,Ukraine,89,150,-155,,150,90,Pro Open,M,B,Raw,No,,,,,,,,150,,1975
1,Maksim Kaydan,Максим Кайдан,Ukraine,99.9,190,197.5,202.5,202.5,100,Pro Open,M,B,Raw,No,,,,,,,,202.5,,1985
2,Vadim Stavila,Вадим Ставила,Moldova,97.5,180,192.5,-200,192.5,100,Pro Open,M,B,Raw,No,,,,,,,,192.5,,1990
3,Krzystof Celinski,,Poland,97,190,-197.5,-197.5,190,100,Pro Open,M,B,Raw,No,,,,,,,,190,,1985
4,Valeriy Shkurdalov,Валерій Шкурдалов,Ukraine,96.1,180,187.5,-190,187.5,100,Pro Open,M,B,Raw,No,,,,,,,,187.5,,1974
5,Sergiy Vereshchak,Сергій Верещак,Ukraine,99,165,172.5,-177.5,172.5,100,Pro Open,M,B,Raw,No,,,,,,,,172.5,,1975
6,Valentin Domnenko,Валентин Домненко,Ukraine,96.2,160,-165,165,165,100,Pro Open,M,B,Raw,No,,,,,,,,165,,1986
7,Mohammadreza Babaei,,Iran,92.7,155,-165,,155,100,Pro Open,M,B,Raw,No,,,,,,,,155,,1978
DQ,Ivan Ignatkin,Іван Ігнаткін,Ukraine,97,-145,,,,100,Pro Open,M,B,Raw,No,,,,,,,,,,1983
1,Andrey Kisel,Андрей Кисель,Ukraine,110,240,250,-255,250,110,Pro Open,M,B,Raw,No,,,,,,,,250,,1975
2,Yakov Granov,Яков Гранов,Russia,107,230,240,-245,240,110,Pro Open,M,B,Raw,No,,,,,,,,240,,1987
3,Oleg Palamarchuk,Олег Паламарчук,Ukraine,106.9,200,210,-220,210,110,Pro Open,M,B,Raw,No,,,,,,,,210,,1972
4,Volodimir Labenskiy,Володимир Лабенський,Ukraine,101,170,-180,-180,170,110,Pro Open,M,B,Raw,No,,,,,,,,170,,1983
1,Anton Matveev,Антон Матвеев,Russia,119,220,232.5,-240,232.5,125,Pro Open,M,B,Raw,No,,,,,,,,232.5,,1971
2,Amir Omid Ali,,Iran,110.1,190,-202.5,-212.5,190,125,Pro Open,M,B,Raw,No,,,,,,,,190,,1980
1,Igor Pober,Ігор Побер,Ukraine,125.2,220,225,-230,225,140,Pro Open,M,B,Raw,No,,,,,,,,225,,1968
2,Andriy Grin,Андрій Гринь,Ukraine,131,210,-222.5,-222.5,210,140,Pro Open,M,B,Raw,No,,,,,,,,210,,1968
DQ,Viktor Kochmar,Віктор Кочмар,Ukraine,141,-230,-230,,,155,Pro Open,M,B,Raw,No,,,,,,,,,,1970
1,Volodimir Starchenko,Володимир Старченко,Ukraine,89,150,-155,,150,90,Pro Submasters 33-39,M,B,Raw,No,,,,,,,,150,,1975
1,Sergiy Vereshchak,Сергій Верещак,Ukraine,99,165,172.5,-177.5,172.5,100,Pro Submasters 33-39,M,B,Raw,No,,,,,,,,172.5,,1975
2,Mohammadrez Babaei,,Iran,92.7,155,-165,,155,100,Pro Submasters 33-39,M,B,Raw,No,,,,,,,,155,,1978
1,Vadim Aliev #1,Вадим Алієв,Ukraine,74.1,140,150,155,155,75,Pro Masters 40-44,M,B,Raw,No,,,,,,,,155,,1970
1,V Chekhanyuk,В Чеханюк,Ukraine,82.5,150,157.5,-162.5,157.5,82.5,Pro Masters 40-44,M,B,Raw,No,,,,,,,,157.5,,1970
1,Viktor Viplaven,Віктор Виплавень,Ukraine,92.1,137.5,145,-150,145,100,Pro Masters 40-44,M,B,Raw,No,,,,,,,,145,,1970
1,Vadim Smolyak,Вадим Смоляк,Moldova,102.5,165,175,-180,175,110,Pro Masters 40-44,M,B,Raw,No,,,,,,,,175,,1969
2,Vladislav Fesun,Владислав Фесун,Ukraine,108,135,145,150,150,110,Pro Masters 40-44,M,B,Raw,No,,,,,,,,150,,1967
1,Andriy Kalabanka,Андрій Калабанька,Ukraine,122,200,-205,-205,200,125,Pro Masters 40-44,M,B,Raw,No,,,,,,,,200,,1970
1,Igor Pober,Ігор Побер,Ukraine,125.2,220,225,-230,225,140,Pro Masters 40-44,M,B,Raw,No,,,,,,,,225,,1968
1,Zygmynd Wysocki,,Poland,82.5,155,160,170,170,82.5,Pro Masters 45-49,M,B,Raw,No,,,,,,,,170,,1966
1,Igor Chumak,Ігор Чумак,Ukraine,82.6,120,130,135,135,90,Pro Masters 45-49,M,B,Raw,No,,,,,,,,135,,1965
1,Anatoliy Pecherskiy,Анатолий Печерский,Moldova,97.3,150,-157.5,-162.5,150,100,Pro Masters 45-49,M,B,Raw,No,,,,,,,,150,,1965
1,Kamal Heidari,,Iran,108.7,160,180,-190,180,110,Pro Masters 45-49,M,B,Raw,No,,,,,,,,180,,1965
2,Igor Lyutnitskiy,Ігор Лютницький,Ukraine,103,-110,-110,110,110,110,Pro Masters 45-49,M,B,Raw,No,,,,,,,,110,,1965
1,Oleksiy Khromenkov,Олексій Хроменков,Ukraine,96,125,130,137.5,137.5,100,Pro Masters 50-54,M,B,Raw,No,,,,,,,,137.5,,1957
1,Volodimir Lizurchik,Володимир Лізурчик,Ukraine,105.6,170,180,-185,180,110,Pro Masters 50-54,M,B,Raw,No,,,,,,,,180,,1958
1,Andriy Grin,Андрій Гринь,Ukraine,131,210,-222.5,-222.5,210,140,Pro Masters 40-44,M,B,Raw,No,,,,,,,,210,,1968
1,Viktor Papushoy,Виктор Папушой,Russia,72.5,150,160,-165,160,75,Pro Masters 55-59,M,B,Raw,No,,,,,,,,160,,1953
1,Franciszek Szabluk,,Poland,90.5,140,150,155,155,100,Pro Masters 55-59,M,B,Raw,No,,,,,,,,155,,1956
2,Sergiy Denisov,Сергій Денисов,Ukraine,99.2,130,140,-152.5,140,100,Pro Masters 55-59,M,B,Raw,No,,,,,,,,140,,1956
1,Volodimir Nagalyuk,Володимир Нагалюк,Ukraine,81.9,70,75,-80,75,82.5,Pro Masters 60-64,M,B,Raw,No,,,,,,,,75,,1951
1,Amirsalari Yaghob,,Iran,99.8,125,135,-140,135,100,Pro Masters 50-54,M,B,Raw,No,,,,,,,,135,,1962
1,Valeriy Kolyadyuk,Валерій Колядюк,Ukraine,106.8,140,150,155,155,110,Pro Masters 60-64,M,B,Raw,No,,,,,,,,155,,1949
1,Viktor Glushchenko,Віктор Глущенко,Ukraine,73.9,115,120,-122,120,75,Pro Masters 70-74,M,B,Raw,No,,,,,,,,120,,1942
1,Grigoriy Miroshnichenko,Григорій Мірошніченко,Ukraine,88,125,130,135,135,90,Pro Military/Fire/Police,M,B,Raw,No,,,,,,,,135,,1964
1,Vadim Smolyak,Вадим Смоляк,Moldova,102.5,165,175,-180,175,110,Pro Military/Fire/Police,M,B,Raw,No,,,,,,,,175,,1969
DQ,Viktor Kochmar,Віктор Кочмар,Ukraine,141,-230,-230,,,155,Pro Military/Fire/Police,M,B,Raw,No,,,,,,,,,,1970
1,Nataliya Klez,Наталія Клезь,Ukraine,58.1,52.5,60,-62.5,295,60,Amateur Teen 13-15,F,SBD,Wraps,Yes,100,110,115,105,120,-125,115,60,120,1998
1,Irina Galabir,Ірина Галабір,Ukraine,50,35,40,42.5,180,52,Amateur Teen 16-17,F,SBD,Wraps,Yes,60,67.5,-70,-60,60,70,67.5,42.5,70,1995
1,Liliya Osadcha,Лілія Осадча,Ukraine,51.8,-40,40,,200,52,Amateur Open,F,SBD,Wraps,Yes,70,-80,-80,80,85,90,70,40,90,1985
DQ,Mariya Markovich #1,Марія Маркович,Ukraine,50.1,40,-42.5,42.5,,52,Amateur Open,F,SBD,Wraps,Yes,-60,-60,60,-70,-70,-70,60,42.5,,1985
1,Nataliya Mileeva,Наталя Мілеєва,Ukraine,53.9,57.5,62.5,65,295,56,Amateur Open,F,SBD,Wraps,Yes,95,100,-105,110,120,130,100,65,130,1981
2,Olena Koroeva,Олена Короєва,Ukraine,55.9,55,57.5,-60,217.5,56,Amateur Open,F,SBD,Wraps,Yes,-70,-70,70,90,-95,,70,57.5,90,1983
1,Katerina Melchenko,Катерина Мельченко,Ukraine,60,35,37.5,-40,207.5,60,Amateur Open,F,SBD,Wraps,Yes,75,80,-85,75,80,90,80,37.5,90,1988
1,Oksana Dubovitska,Оксана Дубовицька,Ukraine,66.4,72.5,80,85,392.5,67.5,Amateur Open,F,SBD,Wraps,Yes,120,130,137.5,155,165,170,137.5,85,170,1984
1,Evgeniya Dorotyuk,Євгенія Доротюк,Ukraine,79.5,50,-55,-55,240,82.5,Amateur Open,F,SBD,Wraps,Yes,70,80,90,70,90,100,90,50,100,1982
1,Irina Fondalyuk,Ірина Фондалюк,Ukraine,85,57.5,62.5,-65,365,90,Amateur Open,F,SBD,Wraps,Yes,130,140,150,130,-140,152.5,150,62.5,152.5,1981
1,Oksana Muzika,Оксана Музика,Ukraine,66.7,57.5,65,67.5,272.5,67.5,Amateur Masters 40-44,F,SBD,Wraps,Yes,90,97.5,102.5,92.5,100,102.5,102.5,67.5,102.5,1969
1,Irina Tikhonova,Ірина Тихонова,Ukraine,69.7,55,62.5,65,275,75,Amateur Masters 40-44,F,SBD,Wraps,Yes,90,97.5,-102.5,100,112.5,-117.5,97.5,65,112.5,1970
1,Lyudmila Ishchenko,Людмила Іщенко,Ukraine,74.8,55,60,-65,305,75,Amateur Masters 50-54,F,SBD,Wraps,Yes,105,-120,120,115,125,-130,120,60,125,1961
1,Nataliya Tsukanova,Наталія Цуканова,Ukraine,79.6,85,90,-92.5,395,82.5,Amateur Masters 55-59,F,SBD,Wraps,Yes,140,150,155,140,150,-155,155,90,150,1956
1,Mikita Kravets,Микита Кравець,Ukraine,40.6,40,47.5,-50.5,232.5,44,Amateur Sub-Teen 11-12,M,SBD,Wraps,Yes,85,95,-100,70,80,90,95,47.5,90,2000
1,Igor Lisenko,Игорь Лысенко,Ukraine,70,40,45,50,270,75,Amateur Sub-Teen 11-12,M,SBD,Wraps,Yes,105,-115,120,95,100,-110,120,50,100,2000
1,Dmitro Nastekhin,Дмитро Настехін,Ukraine,60,67.5,72.5,-77.5,277.5,60,Amateur Teen 13-15,M,SBD,Wraps,Yes,92.5,100,105,95,100,,105,72.5,100,1997
1,Valentin Bondar,Валентин Бондар,Ukraine,68.8,90,-97.5,,447.5,75,Amateur Teen 13-15,M,SBD,Wraps,Yes,140,150,157.5,190,200,-207.5,157.5,90,200,1996
1,Kostyantin Sheychenko,Костянтин Шейченко,Ukraine,52.7,65,72.5,-77.5,297.5,56,Amateur Teen 16-17,M,SBD,Wraps,Yes,90,-105,105,100,120,-125,105,72.5,120,1995
1,Vitaliy Muzika,Віталій Музика,Ukraine,66.2,100,105,107.5,492.5,67.5,Amateur Teen 16-17,M,SBD,Wraps,Yes,150,162.5,170,192.5,205,215,170,107.5,215,1995
1,Dmitro Khanov,Дмитро Ханов,Ukraine,74.5,110,115,120,515,75,Amateur Teen 16-17,M,SBD,Wraps,Yes,190,200,205,-190,190,,205,120,190,1995
2,Volodimir Nechay,Володимир Нечай,Ukraine,73.3,80,85,-90,400,75,Amateur Teen 16-17,M,SBD,Wraps,Yes,-140,145,-160,160,170,,145,85,170,1995
1,Maksim Goncharov,Максим Гончаров,Ukraine,81,105,110,115,455,82.5,Amateur Teen 16-17,M,SBD,Wraps,Yes,150,160,-170,160,170,180,160,115,180,1995
1,Yaroslav Kalugin,Ярослав Калугін,Ukraine,55.9,60,-65,-65,325,56,Amateur Teen 18-19,M,SBD,Wraps,Yes,115,-125,-125,-150,150,,115,60,150,1994
1,Vasiliy Talpe,Василий Талпе,Moldova,58.1,82.5,87.5,-90,302.5,60,Amateur Teen 18-19,M,SBD,Wraps,Yes,-80,80,85,120,125,130,85,87.5,130,1993
1,Illya Korobov,Ілля Коробов,Ukraine,73.7,95,105,107.5,397.5,75,Amateur Teen 18-19,M,SBD,Wraps,Yes,-140,-140,140,150,-180,-180,140,107.5,150,1993
DD,Andriy Karas'kin,Андрій Караськін,Ukraine,90,-145,150,-155,,90,Amateur Teen 18-19,M,SBD,Wraps,Yes,200,215,225,250,265,-275,225,150,265,1992
1,Yaroslav Apalkov,Ярослав Апальков,Ukraine,140,-140,140,-150,650,140,Amateur Teen 18-19,M,SBD,Wraps,Yes,230,250,-270,230,250,260,250,140,260,1993
1,Efim Orbu,Ефим Орбу,Moldova,58.3,75,-80,80,370,60,Amateur Juniors 20-23,M,SBD,Wraps,Yes,115,120,-125,170,-180,-180,120,80,170,1989
1,Mikael Oganesyan,Мікаель Оганесян,Ukraine,66.5,105,-110,,500,67.5,Amateur Juniors 20-23,M,SBD,Wraps,Yes,165,175,-180,205,215,220,175,105,220,1991
2,Volodimir Yakunin,Володимир Якунін,Ukraine,66.6,95,-102.5,102.5,487.5,67.5,Amateur Juniors 20-23,M,SBD,Wraps,Yes,165,175,182.5,192.5,202.5,-212.5,182.5,102.5,202.5,1988
3,Oleksandr Romanchuk,Олександр Романчук,Ukraine,65.7,115,120,-125,402.5,67.5,Amateur Juniors 20-23,M,SBD,Wraps,Yes,140,150,152.5,130,,,152.5,120,130,1992
1,Aslanbek Pchikhachev,Асланбек Пчихачев,Russia,74.9,140,-145,145,540,75,Amateur Juniors 20-23,M,SBD,Wraps,Yes,160,-185,200,-185,185,195,200,145,195,1991
2,Kostyantin Vishnevskiy,Костянтин Вишневський,Ukraine,68.8,100,107.5,112.5,500,75,Amateur Juniors 20-23,M,SBD,Wraps,Yes,150,165,-172.5,200,215,222.5,165,112.5,222.5,1990
3,Vasil Pashkevich,Василь Пашкевич,Ukraine,73.8,132.5,140,145,500,75,Amateur Juniors 20-23,M,SBD,Wraps,Yes,160,170,177.5,160,170,177.5,177.5,145,177.5,1988
1,Eduard Lisovetskiy,Едуард Лісовецький,Ukraine,81,100,110,-115,520,82.5,Amateur Juniors 20-23,M,SBD,Wraps,Yes,190,205,-222.5,190,200,205,205,110,205,1988
2,Ivan Gutsu,Іван Гуцу,Ukraine,77,90,97.5,-102.5,432.5,82.5,Amateur Juniors 20-23,M,SBD,Wraps,Yes,-150,160,170,150,165,,170,97.5,165,1991
1,Igor Mazur,Ігор Мазур,Ukraine,86.4,115,125,130,525,90,Amateur Juniors 20-23,M,SBD,Wraps,Yes,190,-210,-210,185,195,205,190,130,205,1989
1,Dmitro Kalnin,Дмитро Кальнин,Ukraine,100,130,140,145,610,100,Amateur Juniors 20-23,M,SBD,Wraps,Yes,210,225,-235,220,230,240,225,145,240,1989
DD,Mikhaylo Kozelchuk,Михайло Козельчук,Ukraine,103.4,165,175,182.5,,110,Amateur Juniors 20-23,M,SBD,Wraps,Yes,220,-235,235,220,240,245,235,182.5,245,1988
1,Aleksandr Miroshnichenko #1,Олександр Мирошніченко,Moldova,55.1,-107.5,112.5,-115,400,56,Amateur Open,M,SBD,Wraps,Yes,117.5,127.5,130,140,150,157.5,130,112.5,157.5,1987
1,Dmitriy Shpak,Дмитрий Шпак,Moldova,59.3,72.5,80,85,405,60,Amateur Open,M,SBD,Wraps,Yes,115,125,135,160,-180,185,135,85,185,1991
1,Sergey Telyukov,Сергей Телюков,Moldova,66.2,110,-117.5,117.5,502.5,67.5,Amateur Open,M,SBD,Wraps,Yes,177.5,192.5,200,-180,185,-200,200,117.5,185,1986
2,Sergiy Toporen,Сергій Топорен,Ukraine,66.5,100,107.5,-112.5,372.5,67.5,Amateur Open,M,SBD,Wraps,Yes,125,140,-150,110,125,-140,140,107.5,125,1987
1,Aslanbek Pchikhachev,Асланбек Пчихачев,Russia,74.9,140,-145,145,540,75,Amateur Open,M,SBD,Wraps,Yes,160,-185,200,-185,185,195,200,145,195,1991
2,Andrey Kozhukhar,Андрей Кожухарь,Moldova,72.1,100,-107.5,-107.5,527.5,75,Amateur Open,M,SBD,Wraps,Yes,180,-195,-195,220,235,247.5,180,100,247.5,1985
3,Volodimir Komnatskiy,Володимир Комнацький,Ukraine,74.1,120,125,130,505,75,Amateur Open,M,SBD,Wraps,Yes,170,180,185,-190,190,-200,185,130,190,1979
DQ,Oleksiy Slyushchenko,Олексій Слющенко,Ukraine,72.8,120,130,-140.5,,75,Amateur Open,M,SBD,Wraps,Yes,-100,,,110,,,,130,110,1984
1,Andriy Dyatlov,Андрій Дятлов,Ukraine,79.1,135,140,-145,595,82.5,Amateur Open,M,SBD,Wraps,Yes,200,-215,220,210,225,235,220,140,235,1985
2,Vitaliy Misyutinskiy,Віталій Місютинський,Ukraine,80.7,125,132.5,-137.5,595,82.5,Amateur Open,M,SBD,Wraps,Yes,210,225,230,215,225,232.5,230,132.5,232.5,1967
3,Volodimir Tsibulskiy,Володимир Цибульський,Ukraine,81.2,110,117.5,-120,557.5,82.5,Amateur Open,M,SBD,Wraps,Yes,-190,190,200,-220,225,240,200,117.5,240,1986
4,Andriy Goncharov,Андрій Гончаров,Ukraine,82.4,-140,140,145,555,82.5,Amateur Open,M,SBD,Wraps,Yes,-200,200,-205,210,-215,-215,200,145,210,1981
5,Yuriy Bilyuga,Юрій Білюга,Ukraine,80.1,110,115,-117.5,505,82.5,Amateur Open,M,SBD,Wraps,Yes,170,180,190,200,-215,-215,190,115,200,1984
1,Vitaliy Vovk,Віталій Вовк,Ukraine,88.1,150,-160,-160,642.5,90,Amateur Open,M,SBD,Wraps,Yes,230,-240,240,240,245,252.5,240,150,252.5,1975
2,Vitaliy Palivoda,Віталій Паливода,Ukraine,89.1,120,127.5,130,642.5,90,Amateur Open,M,SBD,Wraps,Yes,240,-250,250,240,252.5,262.5,250,130,262.5,1983
3,Oleg Khmilyak,Олег Хмиляк,Ukraine,89.2,135,142.5,-147.5,635,90,Amateur Open,M,SBD,Wraps,Yes,225,-235,240,230,242.5,252.5,240,142.5,252.5,1988
4,Alim Patretniy,Алім Патретний,Ukraine,88.1,110,120,-125,545,90,Amateur Open,M,SBD,Wraps,Yes,180,195,-210,210,230,-235,195,120,230,1974
DD,Andriy Karas'kin,Андрій Караськін,Ukraine,90,-145,150,-155,,90,Amateur Open,M,SBD,Wraps,Yes,200,215,225,250,265,-275,225,150,265,1992
1,Volodimir Ukhach,Володимир Ухач,Ukraine,99.6,170,182.5,-187.5,740,100,Amateur Open,M,SBD,Wraps,Yes,250,270,282.5,250,267.5,275,282.5,182.5,275,1960
2,Sergey Georgiev,Сергей Георгиев,Moldova,98.5,150,160,-162.5,650,100,Amateur Open,M,SBD,Wraps,Yes,220,240,-245,250,-262.5,-262.5,240,160,250,1987
1,Sergiy Bessel,Сергій Бессель,Ukraine,103.2,157.5,165,170,665,110,Amateur Open,M,SBD,Wraps,Yes,215,230,242.5,225,245,252.5,242.5,170,252.5,1984
2,Mikola Matvienko,Микола Матвієнко,Ukraine,101.3,160,170,,630,110,Amateur Open,M,SBD,Wraps,Yes,210,220,-230,230,240,,220,170,240,1984
3,Yuriy Shinkaruk,Юрій Шинкарук,Ukraine,103.3,135,145,-155,515,110,Amateur Open,M,SBD,Wraps,Yes,180,-190,190,160,180,-200,190,145,180,1976
1,Yuriy Spinov,Юрій Спінов,Ukraine,124.8,130,137.5,-140,727.5,125,Amateur Open,M,SBD,Wraps,Yes,250,270,-285,300,320,,270,137.5,320,1962
2,Mikola Prezhin,Микола Прежин,Ukraine,119.1,185,-202.5,202.5,697.5,125,Amateur Open,M,SBD,Wraps,Yes,-230,230,-250,240,252.5,265,230,202.5,265,1981
3,Andrey Shmorgun,Андрей Шморгун,Russia,118,175,185,-187.5,695,125,Amateur Open,M,SBD,Wraps,Yes,-220,240,245,250,260,265,245,185,265,1984
1,Oleksandr Shvab,Олександр Шваб,Ukraine,125.5,150,-170,,410,140,Amateur Open,M,SBD,Wraps,Yes,160,,,100,,,160,150,100,1976
1,Alim Patretniy,Алім Патретний,Ukraine,88.1,110,120,-125,545,90,Amateur Submasters 33-39,M,SBD,Wraps,Yes,180,195,-210,210,230,-235,195,120,230,1974
1,Yuriy Shinkaruk,Юрій Шинкарук,Ukraine,103.3,135,145,-155,515,110,Amateur Submasters 33-39,M,SBD,Wraps,Yes,180,-190,190,160,180,-200,190,145,180,1976
1,Vitaliy Misyutinskiy,Віталій Місютинський,Ukraine,80.7,125,132.5,-137.5,595,82.5,Amateur Masters 40-44,M,SBD,Wraps,Yes,210,225,230,215,225,232.5,230,132.5,232.5,1967
2,Volodimir Korenga,Володимир Коренга,Ukraine,79.8,130,135,-137.5,495,82.5,Amateur Masters 40-44,M,SBD,Wraps,Yes,-150,160,-170,180,200,-210,160,135,200,1970
1,Yaroslav Falbiychuk,Ярослав Фальбійчук,Ukraine,86.5,140,145,-147.5,535,90,Amateur Masters 40-44,M,SBD,Wraps,Yes,170,185,-195,180,200,205,185,145,205,1968
1,Yuriy Chernyavskiy #1,Юрій Чернявський,Ukraine,93.9,155,165,-170,615,100,Amateur Masters 40-44,M,SBD,Wraps,Yes,205,220,-225,215,225,230,220,165,230,1972
1,Oleksiy Sheychenko,Олексій Шейченко,Ukraine,84.5,92.5,97.5,100,395,90,Amateur Masters 45-49,M,SBD,Wraps,Yes,125,-140,-140,150,170,,125,100,170,1965
1,Sergiy Kolisnik,Сергій Колісник,Ukraine,96.7,140,150,,550,100,Amateur Masters 45-49,M,SBD,Wraps,Yes,175,190,200,180,200,,200,150,200,1963
1,Yuriy Khanov,Юрій Ханов,Ukraine,103.6,110,-115,115,495,110,Amateur Masters 45-49,M,SBD,Wraps,Yes,-180,180,-190,190,200,,180,115,200,1963
1,Yuriy Spinov,Юрій Спінов,Ukraine,124.8,130,137.5,-140,727.5,125,Amateur Masters 45-49,M,SBD,Wraps,Yes,250,270,-285,300,320,,270,137.5,320,1962
1,Volodimir Ukhach,Володимир Ухач,Ukraine,99.6,170,182.5,-187.5,740,100,Amateur Masters 50-54,M,SBD,Wraps,Yes,250,270,282.5,250,267.5,275,282.5,182.5,275,1960
1,Valeriy Melnik #1,Валерій Мельник,Ukraine,107,140,-150,-150,590,110,Amateur Masters 50-54,M,SBD,Wraps,Yes,220,230,-240,210,220,,230,140,220,1958
1,Volodimir Vasilenko,Володимир Василенко,Ukraine,75.9,60,65,67.5,332.5,82.5,Amateur Masters 65-69,M,SBD,Wraps,Yes,105,-115,115,130,145,150,115,67.5,150,1943
1,Vasil Pashkevich,Василь Пашкевич,Ukraine,73.8,132.5,140,145,500,75,Amateur Military/Fire/Police,M,SBD,Wraps,Yes,160,170,177.5,160,170,177.5,177.5,145,177.5,1988
1,Andriy Dyatlov,Андрій Дятлов,Ukraine,79.1,135,140,-145,595,82.5,Amateur Military/Fire/Police,M,SBD,Wraps,Yes,200,-215,220,210,225,235,220,140,235,1985
1,Evgen Patrikey,Євген Патрикей,Ukraine,123.9,-160,160,-170,590,125,Amateur Military/Fire/Police,M,SBD,Wraps,Yes,-190,190,200,200,230,-240,200,160,230,1975
1,Tetyana Kalugina,Тетяна Калугіна,Ukraine,59.5,90,97.5,-102.5,427.5,60,Pro Open,F,SBD,Wraps,No,150,-160,160,150,160,170,160,97.5,170,1980
1,Lyudmila Tsvetkova,Людмила Цветкова,Ukraine,56,47.5,-55,-56,267.5,56,Pro Masters 50-54,F,SBD,Wraps,No,85,95,-105,100,115,125,95,47.5,125,1961
1,Ruslan Rizhikh,Руслан Рыжих,Ukraine,82.4,130,137.5,-150,563.5,82.5,Pro Teen 16-17,M,SBD,Wraps,No,-201,201,-215,210,225,,201,137.5,225,1995
DQ,Oleksandr Noskov,Олександр Носков,Ukraine,81,-125,-125,-125,,82.5,Pro Teen 16-17,M,SBD,Wraps,No,170,-180,182.5,180,187.5,195,182.5,,195,1994
1,Sergiy Redka,Сергій Редька,Ukraine,67.5,142.5,-152.5,-155,587.5,67.5,Pro Juniors 20-23,M,SBD,Wraps,No,210,225,235,210,-225,,235,142.5,210,1990
1,Andriy Gurichev,Андрій Гурічев,Ukraine,75,135,145,-155,577.5,75,Pro Juniors 20-23,M,SBD,Wraps,No,-210,210,-225,210,222.5,-230,210,145,222.5,1991
1,Vadim Stavila,Вадим Ставила,Moldova,97.5,180,190,195,730,100,Pro Juniors 20-23,M,SBD,Wraps,No,240,255,265,270,-290,-290,265,195,270,1990
1,Andriy Gurichev,Андрій Гурічев,Ukraine,75,135,145,-155,577.5,75,Pro Open,M,SBD,Wraps,No,-210,210,-225,210,222.5,-230,210,145,222.5,1991
DQ,Oleksandr Vigivskiy,Олександр Вигівський,Ukraine,75,115,125,-130,,75,Pro Open,M,SBD,Wraps,No,-215,-220,-220,210,-220,-220,,125,210,1986
1,Ayoub Salehi,,Iran,81.9,130,145,,625,82.5,Pro Open,M,SBD,Wraps,No,-220,220,240,220,240,-245,240,145,240,1987
1,Boris Stashuk,Борис Сташук,Ukraine,89.7,175,185,-192.5,715,90,Pro Open,M,SBD,Wraps,No,230,250,-270,260,280,,250,185,280,1985
2,Viktor Galabir,Віктор Галабір,Ukraine,89.8,130,135,140,585,90,Pro Open,M,SBD,Wraps,No,200,210,-215,210,225,235,210,140,235,1974
3,Sergiy Palienko,Сергій Палієнко,Ukraine,89.1,120,-130,,500,90,Pro Open,M,SBD,Wraps,No,180,-200,,200,-232.5,,180,120,200,1987
DQ,Rostislav Gerasimenko,Ростислав Герасименко,Ukraine,88.3,150,157.5,160,,90,Pro Open,M,SBD,Wraps,No,-140,,,190,-210,-210,,160,190,1980
1,Yaroslav Trubichkin,Ярослав Трубічкін,Ukraine,99.7,175,185,190,770,100,Pro Open,M,SBD,Wraps,No,310,-325,-325,270,-285,,310,190,270,1987
2,Vadim Stavila,Вадим Ставила,Moldova,97.5,180,190,195,730,100,Pro Open,M,SBD,Wraps,No,240,255,265,270,-290,-290,265,195,270,1990
3,Valeriy Shkurdalov,Валерій Шкурдалов,Ukraine,96.1,170,180,-190,650,100,Pro Open,M,SBD,Wraps,No,-200,200,-210,260,270,-280,200,180,270,1974
DQ,Oleg Khristoforov,Олег Христофоров,Ukraine,98.6,160,,,,100,Pro Open,M,SBD,Wraps,No,-305,-305,-305,230,250,-262.5,,160,250,1975
1,Andrey Kisel,Андрей Кисель,Ukraine,110,230,240,-250,875,110,Pro Open,M,SBD,Wraps,No,320,340,350,260,280,285,350,240,285,1975
2,Andriy Goncharuk,Андрій Гончарук,Ukraine,108.9,160,170,,770,110,Pro Open,M,SBD,Wraps,No,280,290,300,290,-300,300,300,170,300,1988
3,Vadim Smolyak,Вадим Смоляк,Moldova,102.5,155,165,172.5,697.5,110,Pro Open,M,SBD,Wraps,No,255,265,270,255,-270,-270,270,172.5,255,1969
1,Genadiy Kuzmenko,Генадій Кузьменко,Ukraine,125,160,170,175,760,125,Pro Open,M,SBD,Wraps,No,250,-262.5,262.5,290,312.5,322.5,262.5,175,322.5,1972
1,Shirvani Hossein,,Iran,137.6,200,215,,865,140,Pro Open,M,SBD,Wraps,No,280,310,325,300,325,-340,325,215,325,1981
1,Oleksandr Gensitskyy,Олександр Генсіцький,Ukraine,140.2,200,210,220,730,155,Pro Open,M,SBD,Wraps,No,260,-280,,230,250,-260,260,220,250,1975
1,Viktor Galabir,Віктор Галабір,Ukraine,89.8,130,135,140,585,90,Pro Submasters 33-39,M,SBD,Wraps,No,200,210,-215,210,225,235,210,140,235,1974
2,Abolfazl Hashempour,,Iran,88.8,100,-120,125,485,90,Pro Masters 40-44,M,SBD,Wraps,No,-160,-160,160,160,180,200,160,125,200,1971
DQ,Oleg Khristoforov,Олег Христофоров,Ukraine,98.6,160,,,,100,Pro Submasters 33-39,M,SBD,Wraps,No,-305,-305,-305,230,250,-262.5,,160,250,1975
1,Vadim Aliev #1,Вадим Алієв,Ukraine,74.1,140,150,-155,590,75,Pro Masters 40-44,M,SBD,Wraps,No,180,195,205,200,220,235,205,150,235,1970
1,Oleksandr Leshukov,Олександр Лешуков,Ukraine,98.6,110,122.5,127.5,600,100,Pro Masters 40-44,M,SBD,Wraps,No,200,222.5,230,210,235,242.5,230,127.5,242.5,1968
2,Mansoor Rezael Haghighi,,Iran,91,90,105,110,505,100,Pro Masters 40-44,M,SBD,Wraps,No,170,180,190,170,200,205,190,110,205,1969
1,Vadim Smolyak,Вадим Смоляк,Moldova,102.5,155,165,172.5,697.5,110,Pro Masters 40-44,M,SBD,Wraps,No,255,265,270,255,-270,-270,270,172.5,255,1969
1,Oleksandr Shendrik,Олександр Шендрик,Ukraine,113.8,130,135,142.5,602.5,125,Pro Masters 40-44,M,SBD,Wraps,No,-220,220,,220,230,240,220,142.5,240,1972
1,Amirsalari Yaghob,,Iran,99.8,120,135,,610,100,Pro Masters 50-54,M,SBD,Wraps,No,210,225,235,225,240,,235,135,240,1962
1,Aleksandr Nerovnyy,Александр Неровный,Moldova,104,145,-152.5,152.5,592.5,110,Pro Masters 50-54,M,SBD,Wraps,No,-200,200,210,230,-245,-245,210,152.5,230,1958
1,Sergiy Denisov,Сергій Денисов,Ukraine,99.2,130,140,-150,525,100,Pro Masters 55-59,M,SBD,Wraps,No,-170,170,190,180,195,-205,190,140,195,1956
1,Volodimir Nagalyuk,Володимир Нагалюк,Ukraine,81.9,70,75,-77.5,385,82.5,Pro Masters 60-64,M,SBD,Wraps,No,130,135,-140,170,175,-180,135,75,175,1951
1,Magshood Satarzadeh,,Iran,100,100,130,140,520,100,Pro Masters 65-69,M,SBD,Wraps,No,-150,160,180,160,185,200,180,140,200,1942
1,Artem Bortnik,Артем Бортник,Ukraine,100,160,-180,180,640,100,Pro Military/Fire/Police,M,SBD,Wraps,No,-210,210,-230,240,250,-260,210,180,250,1986
1,Vadim Smolyak,Вадим Смоляк,Moldova,102.5,155,165,172.5,697.5,110,Pro Military/Fire/Police,M,SBD,Wraps,No,255,265,270,255,-270,-270,270,172.5,255,1969
1,Dmitro Putin,Дмитро Путін,Ukraine,113,130,140,-150,695,125,Pro Military/Fire/Police,M,SBD,Wraps,No,260,275,-280,260,270,280,275,140,280,1988
