Place,Name,Division,BirthYear,BodyweightKg,Bench1Kg,Bench2Kg,Bench3Kg,Best3BenchKg,WeightClassKg,Sex,CyrillicName,Equipment,Event,TotalKg
1,Vladimir Vorobyev,Masters 1,1968,65.55,-100,100,-107.5,100,66,M,Владимир Воробьев,Raw,B,100
1,Andrey Ivanov,Masters 1,,73.25,130,140,,140,74,M,Андрей Иванов,Raw,B,140
2,Leonid Nozik,Masters 1,1970,73.75,120,125,-127.5,125,74,M,Леонид Нозик,Raw,B,125
3,Stanislav Petrov,Masters 1,1967,73.95,110,115,-117.5,115,74,M,Станислав Петров,Raw,B,115
4,Pavel Anisimov,Masters 1,1967,72.15,107.5,-115,-117.5,107.5,74,M,Павел Анисимов,Raw,B,107.5
5,Oleg Myazkov,Masters 2,1964,72.35,90,95,100,100,74,M,Олег Мязков,Raw,B,100
6,Ikhtiar Aliev,Masters 1,1965,73.85,90,-95,-95,90,74,M,Ихтиар Алиев,Raw,B,90
1,Andrey Voronin,Masters 1,1967,81.85,170,180,185,185,83,M,Андрей Воронин,Raw,B,185
2,Valentin Lebedev,Masters 1,1965,80.9,150,-160,-160,150,83,M,Валентин Лебедев,Raw,B,150
1,Sergey Rogozin,Masters 1,1971,89,200,210,-215,210,93,M,Сергей Рогозин,Raw,B,210
2,Valeriy Nikishin,Masters 1,1965,92.7,190,-202.2,-202.5,190,93,M,Валерий Никишин,Raw,B,190
3,Sergey Astafyev,Masters 1,1968,87,140,147.5,155,155,93,M,Сергей Астафьев,Raw,B,155
4,Alim Marov,Masters 1,1966,91.85,-150,155,-160,155,93,M,,Raw,B,155
5,Eduard Pushkarev,Masters 1,1968,91.7,140,-145,-155,140,93,M,Эдуард Пушкарев,Raw,B,140
1,Manvel Shpak,Masters 1,1973,98.95,170,180,190,190,105,M,Манвел Шпак,Raw,B,190
2,Evgeniy Sposobin,Masters 1,1971,99.1,-145,145,147.5,147.5,105,M,Евгений Способин,Raw,B,147.5
3,Yan Sherbin,Masters 1,1970,103.3,130,-140,-145,130,105,M,Ян Шербин,Raw,B,130
4,Mikhail Ivanov,Masters 1,1970,96.65,100,115,120,120,105,M,Михаил Иванов,Raw,B,120
1,Eduard Kiyan,Masters 1,1972,116.7,180,190,200,200,120,M,Эдуард Киян,Raw,B,200
1,Vadim Sapozhkov,Masters 1,1967,146.3,195,205,-210,205,120+,M,Вадим Сапожков,Raw,B,205
2,Denis Bytsanov,Masters 1,1974,169.2,170,-175,-192.5,170,120+,M,Денис Быцанов,Raw,B,170
3,Aleksey Sablukov,Masters 1,1966,120.65,150,157.5,162.5,162.5,120+,M,Алексей Саблуков,Raw,B,162.5
1,Vasiliy Motovilnik,Masters 2,1957,72.55,130,-135,136,136,74,M,Василий Мотовильник,Raw,B,136
2,Petr Posokhin,Masters 2,1955,73.7,127.5,132.5,135.5,135.5,74,M,Петр Посохин,Raw,B,135.5
1,Valerian Tenishev,Masters 3,1953,80.9,140,145,150,150,83,M,Валериан Тенишев,Raw,B,150
2,Viktor Kunitsa,Masters 2,1959,82.4,132.5,137.5,142.5,142.5,83,M,,Raw,B,142.5
3,Andrey Kogan,Masters 2,1962,81.55,130,140,-150,140,83,M,Андрей Коган,Raw,B,140
4,Tagir Kayaev,Masters 2,1964,81.9,107.5,117.5,-125.5,117.5,83,M,Тагир Каяев,Raw,B,117.5
5,Oleg Efimov,Masters 2,1959,80.65,80,85,90,90,83,M,Олег Ефимов,Raw,B,90
1,Aleksandr Belousov,Masters 2,1960,88.25,117.5,122.5,127.5,127.5,93,M,Александр Белоусов,Raw,B,127.5
2,Boris Byvshev,Masters 2,1955,83.35,120,-125,125,125,93,M,Борис Бывшев,Raw,B,125
3,Vitaliy Gnatko,Masters 2,1961,91.95,115,120,125,125,93,M,Виталий Гнатко,Raw,B,125
4,Viktor Chantsev,Masters 2,1957,90.5,110,112.5,-122.5,112.5,93,M,Виктор Чанцев,Raw,B,112.5
5,Vadim Beroev,Masters 2,1961,92.85,100,110,112.5,112.5,93,M,Вадим Бероев,Raw,B,112.5
1,Sergey Yakovlev,Masters 2,1963,100.15,175,185,190,190,105,M,,Raw,B,190
2,Aleksandr Tsetserskiy,Masters 2,1959,96.9,140,147.5,152.5,152.5,105,M,Александр Цецерский,Raw,B,152.5
1,Andrey Peshkov,Masters 2,1963,107.55,140,160,167.5,167.5,120,M,Андрей Пешков,Raw,B,167.5
2,Arkadiy Ermolaev,Masters 2,1962,110,-150,155,160,160,120,M,Аркадий Ермолаев,Raw,B,160
3,Aleksandr Lavrukhin,Masters 2,1961,116.65,155,160,-167.5,160,120,M,Александр Лаврухин,Raw,B,160
4,Andrey Sakharov,Masters 2,1961,116.25,-120,-130,130,130,120,M,Андрей Сахаров,Raw,B,130
1,Sergey Nikeshin,Masters 2,1958,127.65,155,162.5,167.5,167.5,120+,M,Сергей Никешин,Raw,B,167.5
2,Pavel Fedorov,Masters 2,1960,140.35,100,110,115,115,120+,M,Павел Федоров,Raw,B,115
1,Mikhail Litvinov,Masters 3,1946,72.15,90,100,-102.5,100,74,M,Михаил Литвинов,Raw,B,100
2,Nikolay Baykov,Masters 3,1953,72.2,95,100,-102.5,100,74,M,Николай Байков,Raw,B,100
3,Armais Arzumanyan,Masters 3,1954,69.6,65,-70,-75,65,74,M,Армаис Арзуманян,Raw,B,65
1,Vladimir Demekhin,Masters 3,1948,79.3,105,112.5,115,115,83,M,Владимир Демехин,Raw,B,115
2,Vladimir Gots,Masters 3,1946,82.45,85,90,-95,90,83,M,Владимир Гоц,Raw,B,90
1,Ashot Nubaryan,Masters 3,1952,89.2,130,140,150,150,93,M,Ашот Нубарян,Raw,B,150
2,Anatoliy Patrino,Masters 3,1948,84.2,90,-95,95,95,93,M,Анатолий Патрино,Raw,B,95
3,Sergey Koptyaev,Masters 3,1950,89.05,80,85,-95,85,93,M,Сергей Коптяев,Raw,B,85
1,Oleg Zakharov,Masters 3,1949,101.85,122.5,127.5,130,130,105,M,Олег Захаров,Raw,B,130
2,Vladislav Pavlyukov,Masters 3,1946,95.35,95,100,-105,100,105,M,Владислав Павлюков,Raw,B,100
1,Anatoliy Stepanov,Masters 3,1951,112.5,110,115,120,120,120,M,Анатолий Степанов,Raw,B,120
2,Anatoliy Nikonov,Masters 3,1950,106.45,90,100,-105,100,120,M,Анатолий Никонов,Raw,B,100
1,Viktor Tarasov,Masters 4,1944,92.3,105,110,-112.5,110,93,M,Виктор Тарасов,Raw,B,110
1,Aleksandr Baykov,Sub-Juniors,2001,38.75,35,40,42.5,42.5,40,M,Александр Байков,Raw,B,42.5
2,Abdumokh Makhmudov,Sub-Juniors,2001,37.8,30,35,-40,35,40,M,Абдумох Махмудов,Raw,B,35
DQ,Maksim Kablukov,Sub-Juniors,2002,34.1,-25,-25,-25,,40,M,Максим Каблуков,Raw,B,
1,Nikita Stanovov,Sub-Juniors,2003,43,35,37.5,-45,37.5,43,M,Никита Становов,Raw,B,37.5
2,Nikita Fomichev,Sub-Juniors,2000,42.8,30,35,-40,35,43,M,Никита Фомичев,Raw,B,35
3,Sergey Stepanov,Sub-Juniors,2003,40.65,25,27.5,30,30,43,M,Сергей Степанов,Raw,B,30
1,Semen Scheglov,Sub-Juniors,1998,47.95,50,55,57.5,57.5,48,M,Семен Щеглов,Raw,B,57.5
2,Artem Safonov #1,Sub-Juniors,2002,47.1,45,50,-52.5,50,48,M,Артем Сафонов,Raw,B,50
3,Pavel Platonovich,Sub-Juniors,2000,48,47.5,50,-52.5,50,48,M,Павел Платонович,Raw,B,50
4,Denis Egorov,Sub-Juniors,1997,45.3,35,40,-42.5,40,48,M,Денис Егоров,Raw,B,40
1,Nikita Andronov,Sub-Juniors,1999,51.9,70,-75,75,75,53,M,Никита Андронов,Raw,B,75
2,Artem Kalinin,Sub-Juniors,1999,51.4,65,70,-75,70,53,M,Артем Калинин,Raw,B,70
3,Nikita Smirnov,Sub-Juniors,2000,49.8,57.5,60,62.5,62.5,53,M,Никита Смирнов,Raw,B,62.5
4,Igor Ivanov #8,Sub-Juniors,,51.55,37.5,40,-42.5,40,53,M,Игорь Иванов,Raw,B,40
1,Sergey Morozov,Sub-Juniors,1999,57.25,100,107.5,110.5,110.5,59,M,Сергей Морозов,Raw,B,110.5
2,Amad Makhmudov,Sub-Juniors,1998,55.65,75,80,85,85,59,M,Амад Махмудов,Raw,B,85
3,Aleksandr Kolobenin,Sub-Juniors,1997,53.95,65,70,-75,70,59,M,Александр Колобенин,Raw,B,70
4,Sergey Shanshlev,Sub-Juniors,1998,58.75,57.5,62.5,67.5,67.5,59,M,Сергей Шаншлев,Raw,B,67.5
5,Konstantin Robeshko,Sub-Juniors,1998,58.4,60,-70,-70,60,59,M,Константин Робешко,Raw,B,60
6,Vladimir Bibichev,Sub-Juniors,2000,56.6,40,45,-55,45,59,M,Владимир Бибичев,Raw,B,45
1,Mikhail Golynin,Sub-Juniors,1998,63.9,80,85,87.5,87.5,66,M,Михаил Голынин,Raw,B,87.5
2,Albert Dzhumagaliev,Sub-Juniors,1998,64.9,75,82.5,87.5,87.5,66,M,Альберт Джумагалиев,Raw,B,87.5
3,Ivan Ugryumov,Sub-Juniors,1998,60.15,-80,-85,85,85,66,M,Иван Угрюмов,Raw,B,85
4,Abdulbosit Sharipov,Sub-Juniors,1999,63.4,75,80,85,85,66,M,Абдулбосит Шарипов,Raw,B,85
5,Petr Pleshivtsev,Sub-Juniors,1999,64.8,75,-80,-80,75,66,M,Петр Плешивцев,Raw,B,75
6,Yaroslav Kudryavtsev,Sub-Juniors,2000,65.2,62.5,65,67.5,67.5,66,M,Ярослав Кудрявцев,Raw,B,67.5
7,Eduard Sharovikov,Sub-Juniors,2000,59.95,50,57.5,-60,57.5,66,M,Эдуард Шаровиков,Raw,B,57.5
1,Maksim Novikov,Sub-Juniors,1998,73.05,95,100,105,105,74,M,Максим Новиков,Raw,B,105
2,Aleksandr Georgiev,Sub-Juniors,1998,71.2,85,90,92.5,92.5,74,M,Александр Георгиев,Raw,B,92.5
3,Vasiliy Emelyanov,Sub-Juniors,1998,72.4,82.5,87.5,-95,87.5,74,M,Василий Емельянов,Raw,B,87.5
4,Konstantin Kolbasov,Sub-Juniors,1998,69.2,65,70,75,75,74,M,Константин Колбасов,Raw,B,75
5,Aleksandr Lazarev,Sub-Juniors,1999,67.95,67.5,72.5,-75,72.5,74,M,Александр Лазарев,Raw,B,72.5
1,Artem Kuzmin,Sub-Juniors,1998,80.5,110,115,-120,115,83,M,Артем Кузьмин,Raw,B,115
2,Ilya Rubakov,Sub-Juniors,1999,77,80,85,-87.5,85,83,M,Илья Рубаков,Raw,B,85
3,Maksim Voytovich,Sub-Juniors,1999,77.6,77.5,82.5,-85,82.5,83,M,Максим Войтович,Raw,B,82.5
1,Evgeniy Andreev,Sub-Juniors,1999,83.85,95,-100,-100,95,93,M,Евгений Андреев,Raw,B,95
2,Nikita Prokofyev,Sub-Juniors,1998,85.8,90,95,-97.5,95,93,M,Никита Прокофьев,Raw,B,95
3,Vitaliy Derkach,Sub-Juniors,1998,91,65,-75,75,75,93,M,Виталий Деркач,Raw,B,75
1,Vladislav Sinitsyn,Sub-Juniors,1998,97.15,105,-110,-110,105,105,M,Владислав Синицын,Raw,B,105
2,Vladislav Klochko,Sub-Juniors,2000,100.7,30,35,37.5,37.5,105,M,Владислав Клочко,Raw,B,37.5
1,Maksim Stepanov #2,Sub-Juniors,,132.4,130,-135,-135,130,120+,M,Максим Степанов,Raw,B,130
1,Nikita Tretyakov,Sub-Juniors,1996,52.95,70,72.5,-75,72.5,53,M,Никита Третьяков,Raw,B,72.5
2,Ivan Gachkov,Sub-Juniors,1997,52.3,60,62.5,65,65,53,M,Иван Гачков,Raw,B,65
1,Georgiy Yazykov,Sub-Juniors,1996,58.55,70,75,77.5,77.5,59,M,Георгий Языков,Raw,B,77.5
2,Mikhail Ablyamitov,Sub-Juniors,1997,55.8,65,70,-72.5,70,59,M,Михаил Аблямитов,Raw,B,70
3,Timur Rezepov,Sub-Juniors,1997,57.35,60,65,-70,65,59,M,Тимур Резепов,Raw,B,65
4,Rustam Manafov,Sub-Juniors,1996,57.8,55,60,-62.5,60,59,M,Рустам Манафов,Raw,B,60
1,Ilya Lokhin,Sub-Juniors,1996,61.1,95,100,105,105,66,M,Илья Лохин,Raw,B,105
2,Ilya Sokolov,Sub-Juniors,1997,64.6,105,-110,-110,105,66,M,Илья Соколов,Raw,B,105
3,Sergey Vinogradov,Sub-Juniors,1996,64.25,80,87.5,92.5,92.5,66,M,Сергей Виноградов,Raw,B,92.5
4,Artemiy Metelkovskiy,Sub-Juniors,1996,61.95,80,85,90,90,66,M,Артемий Метельковский,Raw,B,90
5,Denis Zvirbul,Sub-Juniors,1997,64.4,70,77.5,80,80,66,M,Денис Звирбуль,Raw,B,80
1,Sergey Velichkin,Sub-Juniors,1997,73.45,110,115,-120,115,74,M,Сергей Величкин,Raw,B,115
2,Sergey Prokhorenko,Sub-Juniors,1996,71.5,100,107.5,-115,107.5,74,M,Сергей Прохоренко,Raw,B,107.5
3,Pavel Nikolaev,Sub-Juniors,1997,70.8,85,92.5,105,105,74,M,Павел Николаев,Raw,B,105
4,Aleksandr Avtonomov,Sub-Juniors,1996,70.1,97.5,102.5,-105,102.5,74,M,Александр Автономов,Raw,B,102.5
5,Yaroslav Mikhaylov,Sub-Juniors,1997,73.25,85,95,-100,95,74,M,Ярослав Михайлов,Raw,B,95
6,Artem Petrash,Sub-Juniors,1997,66.2,85,-90,-90,85,74,M,Артем Петраш,Raw,B,85
7,Nikita Molchanov,Sub-Juniors,1997,66.5,80,85,-87.5,85,74,M,Никита Молчанов,Raw,B,85
8,Anton Yupatov,Sub-Juniors,1996,70.75,85,-90,-90,85,74,M,Антон Юпатов,Raw,B,85
9,Vitaliy Strotskiy,Sub-Juniors,1997,66.4,75,-80,80,80,74,M,Виталий Строцкий,Raw,B,80
10,Danis Mamedov,Sub-Juniors,1997,72.05,60,70,-80,70,74,M,Данис Мамедов,Raw,B,70
1,Anton Reshetov,Sub-Juniors,1996,77.45,115,120,125,125,83,M,Антон Решетов,Raw,B,125
2,Lev Kevorkov,Sub-Juniors,1996,80.05,105,110,115,115,83,M,Лев Кеворков,Raw,B,115
3,Mikhail Grishankov,Sub-Juniors,1996,81.5,102.5,110,115,115,83,M,Михаил Гришанков,Raw,B,115
4,Maksim Kobozev,Sub-Juniors,1997,75.5,-95,105,112.5,112.5,83,M,Максим Кобозев,Raw,B,112.5
5,Mikhail Voevoda,Sub-Juniors,1996,76.15,100,-107.5,107.5,107.5,83,M,Михаил Воевода,Raw,B,107.5
6,Maksim Bologovkin,Sub-Juniors,1997,75.45,92.5,97.5,102.5,102.5,83,M,Максим Бологовкин,Raw,B,102.5
7,Roman Samsonov,Sub-Juniors,1997,81.3,97.5,102.5,-105,102.5,83,M,Роман Самсонов,Raw,B,102.5
8,Dmitriy Abrosimov,Sub-Juniors,1997,77.45,85,95,100,100,83,M,Дмитрий Абросимов,Raw,B,100
9,Ivan Feschenko,Sub-Juniors,1997,79.55,92.5,97.5,100,100,83,M,Іван Фещенко,Raw,B,100
10,Dmitriy Bragin,Sub-Juniors,1997,82.3,67.5,72.5,-75,72.5,83,M,Дмитрий Брагин,Raw,B,72.5
11,Nikita Ishanichev,Sub-Juniors,1997,80.7,55,60,-62.5,60,83,M,Никита Ишаничев,Raw,B,60
1,Andrey Sokolov,Sub-Juniors,1997,91.7,165,175,-182.5,175,93,M,Андрей Соколов,Raw,B,175
2,Pavel Frolov,Sub-Juniors,1997,85.1,140,145,150,150,93,M,Павел Фролов,Raw,B,150
3,Andrey Dolshenkov,Sub-Juniors,1996,85.55,115,120,122.5,122.5,93,M,Андрей Долшенков,Raw,B,122.5
4,Vladislav Lapshin,Sub-Juniors,1996,85.4,110,120,-127.5,120,93,M,Владислав Лапшин,Raw,B,120
5,Denis Yakovlev,Sub-Juniors,1996,85,105,115,-120,115,93,M,Денис Яковлев,Raw,B,115
6,Evgeniy Safronov,Sub-Juniors,1996,89.95,90,95,100,100,93,M,Евгений Сафронов,Raw,B,100
7,Anton Bogatchenko,Sub-Juniors,1997,83.4,-65,70,72.5,72.5,93,M,Антон Богатченко,Raw,B,72.5
1,Sergei Makarov,Sub-Juniors,1996,101.5,90,100,-105,100,105,M,Сергей Макаров,Raw,B,100
1,Ivan Ryabenkov,Sub-Juniors,1996,110.3,125,135,140,140,120,M,Иван Рябенков,Raw,B,140
2,Maksim Dobrenkov,Sub-Juniors,1996,113,105,110,115,115,120,M,Максим Добренков,Raw,B,115
3,Viktor Danilov,Sub-Juniors,1997,106.95,100,105,-110,105,120,M,Виктор Данилов,Raw,B,105
4,Mikhail Solovyev,Sub-Juniors,1996,105.85,90,100,-110,100,120,M,Михаил Соловьев,Raw,B,100
1,Maksim Bubnov,Sub-Juniors,1996,125.75,-85,95,-105,95,120+,M,Максим Бубнов,Raw,B,95
1,Natalya Litvintseva,Masters 1,1970,60.85,70,75,-77.5,75,63,F,Наталья Литвинцева,Raw,B,75
1,Marina Aleksandrova,Masters 1,1968,66.65,70,72.5,75,75,72,F,Марина Александрова,Raw,B,75
1,Regina Kirillova,Masters 1,1969,74.05,90,-100,-100,90,84,F,Регина Кириллова,Raw,B,90
2,Viktoriya Elenevskaya,Masters 1,1969,77.1,60,67.5,70,70,84,F,Виктория Еленевская,Raw,B,70
1,Alena Gamolina,Masters 2,1961,64.7,67.5,-72.5,-72.5,67.5,72,F,Алена Гамолина,Raw,B,67.5
1,Elena Lagutina,Sub-Juniors,2001,43,35,37.5,-40,37.5,43,F,Елена Лагутина,Raw,B,37.5
1,Tatyana Kashtanova,Sub-Juniors,2002,44.25,40,50,-52.5,50,47,F,Татьяна Каштанова,Raw,B,50
2,Alina Solovyeva,Sub-Juniors,2000,44.25,30,32.5,-35,32.5,47,F,Алина Соловьева,Raw,B,32.5
1,Darya Lisova,Sub-Juniors,1998,58.15,45,47.5,-50,47.5,63,F,Дарья Лисова,Raw,B,47.5
2,Zhanna Shevchenko,Sub-Juniors,1997,58.2,45,-47.5,-47.5,45,63,F,Жанна Шевченко,Raw,B,45
3,Aleksandra Rudenko,Sub-Juniors,1996,58,35,40,-42.5,40,63,F,Александра Руденко,Raw,B,40
1,Mariya Malakhova,Sub-Juniors,1996,69.6,55,-62.5,-62.5,55,72,F,Мария Малахова,Raw,B,55
DQ,Margarita Zhogina,Sub-Juniors,1997,68.15,-60,-60,-62.5,,72,F,Маргарита Жогина,Raw,B,
1,Vladislav Shovdra,Open,1992,56.25,100,105,-107.5,105,59,M,Владислав Шовдра,Raw,B,105
2,Valentin Plyuschev,Open,1993,58.3,85,92.5,95,95,59,M,Валентин Плющев,Raw,B,95
1,Vladislav Emelyanov,Open,1994,64.7,122.5,125,127.5,127.5,66,M,Владислав Емельянов,Raw,B,127.5
2,Mikhail Petrov,Open,1993,66,120,125,127.5,127.5,66,M,Михаил Петров,Raw,B,127.5
3,Aleksandr Okunev,Open,1993,60.25,115,120,-125,120,66,M,Александр Окунев,Raw,B,120
4,Viktor Berezin,Open,1995,65.35,102.5,110,120,120,66,M,Виктор Березин,Raw,B,120
5,Igor Sposobin,Open,1991,64.15,100,105,107.5,107.5,66,M,Игорь Способин,Raw,B,107.5
6,Vladislav Sheroshenko,Open,1995,65.2,-100,102.5,-110,102.5,66,M,Владислав Шерошенко,Raw,B,102.5
1,Timur Leysle,Open,1994,70.15,135,142.5,-145,142.5,74,M,Тимур Лейсле,Raw,B,142.5
2,Aleksandr Cheban,Open,1991,73.6,135,-140,-140,135,74,M,Александр Чебан,Raw,B,135
3,Vitaliy Tsimintiya,Open,1994,72.85,120,127.5,130,130,74,M,Виталий Циминтия,Raw,B,130
4,Ilya Svetenko,Open,1995,72.85,122.5,125,-132.5,125,74,M,Илья Светенко,Raw,B,125
5,Aleksandr Falev,Open,1995,72.25,100,110,115,115,74,M,Александр Фалев,Raw,B,115
6,Sergey Khon,Open,1992,69.55,110,-115,-115,110,74,M,Сергей Хон,Raw,B,110
7,Islam Ramazanov,Open,1991,69.85,105,110,-117.5,110,74,M,Ислам Рамазанов,Raw,B,110
8,Vyacheslav Shipovalov,Open,1995,72.1,92.5,97.5,-100,97.5,74,M,Вячеслав Шиповалов,Raw,B,97.5
1,Vladimir Esaulkov,Open,1994,82.25,145,150,-155,150,83,M,Владимир Есаулков,Raw,B,150
2,Sergey Goryunov,Open,1990,80.4,140,145,-150,145,83,M,Сергей Горюнов,Raw,B,145
3,Ivan Nechaev,Open,1994,80.55,120,130,135,135,83,M,Иван Нечаев,Raw,B,135
4,Roman Tarabanov,Open,1995,81,125,-130,-132.5,125,83,M,Роман Тарабанов,Raw,B,125
5,Georgiy Malkov,Open,1993,82.4,122.5,125,-130,125,83,M,Георгий Мальков,Raw,B,125
6,Vondyun Kim,Open,1991,74.5,110,120,-130,120,83,M,Вондюн Ким,Raw,B,120
7,Dmitriy Uvarenkov,Open,1995,77.05,100,105,110,110,83,M,Дмитрий Уваренков,Raw,B,110
8,Kirill Sokolov,Open,1993,76.25,-107.5,107.5,-110,107.5,83,M,Кирилл Соколов,Raw,B,107.5
9,Ilya Kabuschev,Open,1993,81.75,105,-110,-110,105,83,M,Илья Кабущев,Raw,B,105
DQ,Vladimir Usynin,Open,1994,80.55,-127.5,-127.5,-127.5,,83,M,Владимир Усынин,Raw,B,
1,Ruslan Shevchenko,Open,1995,90.6,165,175,180,180,93,M,Руслан Шевченко,Raw,B,180
2,Sergey Belkovich,Open,1992,91.5,170,-180,180,180,93,M,Сергей Белькович,Raw,B,180
3,David Matevosyan,Open,1991,91.75,170,177.5,180,180,93,M,Давид Матевосян,Raw,B,180
4,Daniil Brylev,Open,1993,89.5,140,155,170,170,93,M,Даниил Брылев,Raw,B,170
5,Ivan Bryndin,Open,1993,86.55,150,157.5,-160,157.5,93,M,Иван Брындин,Raw,B,157.5
6,Artem Bulkov,Open,1992,87.65,135,140,-145,140,93,M,Артем Булков,Raw,B,140
7,Aleksandr Klestov,Open,1994,83.85,110,120,130,130,93,M,Александр Клестов,Raw,B,130
8,Alexey Kuzmin,Open,1994,84.9,112.5,-117.5,117.5,117.5,93,M,Алексей Кузьмин,Raw,B,117.5
DQ,Aleksandr Kirillov,Open,1994,89.9,-122.5,-122.5,-122.5,,93,M,Александр Кириллов,Raw,B,
1,Nikita Danilov,Open,1992,101.2,190,200,-207.5,200,105,M,Никита Данилов,Raw,B,200
2,Aleksandr Pedchenko,Open,1993,105,190,200,-207.5,200,105,M,Александр Педченко,Raw,B,200
3,Vladimir Dergunov,Open,1991,98.65,177.5,187.5,192.5,192.5,105,M,Владимир Дергунов,Raw,B,192.5
4,Aleksandr Chernov,Open,1994,101.65,152.5,157.5,165,165,105,M,Александр Чернов,Raw,B,165
5,Artur Araslanov,Open,1994,99.15,-135,142.5,-150,142.5,105,M,Артур Арасланов,Raw,B,142.5
1,Viktor Skvortsov,Open,1994,110.55,-190,190,-200,190,120,M,Виктор Скворцов,Raw,B,190
2,Dmitriy Medvedev,Open,1991,106.6,165,175,-190,175,120,M,Дмитрий Медведев,Raw,B,175
3,Ilya Golomidov,Open,1992,107.35,150,-160,-160,150,120,M,Илья Голомидов,Raw,B,150
4,Egor Obidin,Open,1993,114.25,105,115,-120,115,120,M,Егор Обидин,Raw,B,115
DQ,Konstantin Voskoboynikov,Open,1992,105.85,-180,-180,-180,,120,M,Константин Воскобойников,Raw,B,
1,Vladislav Chuprin,Open,1993,120.75,140,145,-150,145,120+,M,Владислав Чуприн,Raw,B,145
1,Mariya Koldaeva,Sub-Juniors,,40.85,40,42.5,45,45,43,F,Мария Колдаева,Raw,B,45
1,Anna Ivanova #8,Open,1994,44.8,42.5,45,47.5,47.5,47,F,Анна Иванова,Raw,B,47.5
1,Ekaterina Mavchun,Open,1993,50.75,35,37.5,40,40,52,F,Екатерина Мавчун,Raw,B,40
1,Ekaterina Okun,Open,1994,55.55,60,65,70,70,57,F,Екатерина Окунь,Raw,B,70
2,Kristina Bondarenko,Open,1994,53.95,-30,35,37.5,37.5,57,F,Кристина Бондаренко,Raw,B,37.5
1,Alisa Kuznetsova,Open,1995,62.95,-60,65,-70,65,63,F,Алиса Кузнецова,Raw,B,65
2,Irina Abbazova,Open,1994,60.1,45,47.5,50,50,63,F,Ирина Аббазова,Raw,B,50
3,Aleksandra Akimova,Open,1993,63,40,45,-47.5,45,63,F,Александра Акимова,Raw,B,45
1,Yuliya Volkova,Open,1991,66.85,55,-62.5,62.5,62.5,72,F,Юлия Волкова,Raw,B,62.5
1,Levon Khachatryan,Open,1989,65.5,120,-125,130,130,66,M,Левон Хачатрян,Raw,B,130
2,Stanislav Alekseev,Open,1986,64.05,-122.5,122.5,125,125,66,M,Станислав Алексеев,Raw,B,125
3,Mikhail Petrov,Open,1993,65.25,120,125,-127.5,125,66,M,Михаил Петров,Raw,B,125
4,Dmitriy Rybnikov,Open,1990,64.1,107.5,112.5,-115,112.5,66,M,Дмитрий Рыбинков,Raw,B,112.5
5,Mikhail Grebenschikov,Open,1987,64.95,110,-115,-115,110,66,M,Михаил Гребенщиков,Raw,B,110
6,Anton Kolentsev,Open,1980,65.15,85,90,-95,90,66,M,Антон Коленцев,Raw,B,90
7,Ilkin Mamedov,Open,1987,60,80,85,-90,85,66,M,Илкин Мамедов,Raw,B,85
1,Stanislav Trotskiy,Open,1986,70.6,135,142.5,147.5,147.5,74,M,Станислав Троцкий,Raw,B,147.5
2,Aleksandr Eremin #4,Open,1989,74,142.5,-147.5,-147.5,142.5,74,M,Александр Еремин,Raw,B,142.5
3,Vakhtang Gevorgyan,Open,1989,71.95,120,-130,135,135,74,M,Вахтанг Геворгян,Raw,B,135
4,Stanislav Popov,Open,1987,73.35,112.5,117.5,122.5,122.5,74,M,Станислав Попов,Raw,B,122.5
5,Pavel Veselov,Open,1987,70.95,117.5,-120,120,120,74,M,Павел Веселов,Raw,B,120
6,Vitaliy Shkatov,Open,1987,68.7,-110,110,115,115,74,M,Виталий Шкатов,Raw,B,115
7,Aleksandr Tikhonov,Open,1986,72.9,100,107.5,115,115,74,M,Александр Тихонов,Raw,B,115
8,Leonid Antonov,Open,1977,66.9,80,-87.5,90,90,74,M,Леонид Антонов,Raw,B,90
9,Pavel Semenov,Open,1989,67,-90,90,-95,90,74,M,Павел Семенов,Raw,B,90
1,Mikhail Alimov,Open,1987,82.8,195,-201,-201,195,83,M,Михаил Алимов,Raw,B,195
2,Denis Fedorchuk,Open,1989,80,160,167.5,175,175,83,M,Денис Федорчук,Raw,B,175
3,Yuriy Kadyrov,Open,1974,81.6,162.5,170,175,175,83,M,Юрий Кадыров,Raw,B,175
4,Aleksey Rusakov,Open,1977,81.65,150,160,172.5,172.5,83,M,Алексей Русаков,Raw,B,172.5
5,Vladimir Belyaev,Open,1981,82.2,162.5,170,-175,170,83,M,Владимир Беляев,Raw,B,170
6,Vladimir Rostun,Open,1981,82,150,157.5,162.5,162.5,83,M,Владимир Ростун,Raw,B,162.5
7,Maksim Tkachenko,Open,1989,81.85,155,160,-165,160,83,M,Максим Ткаченко,Raw,B,160
8,Dmitriy Mamaev,Open,1985,80.1,140,147.5,-150,147.5,83,M,Дмитрий Мамаев,Raw,B,147.5
9,Vladislav Komarov,Open,1986,81.75,130,145,-150,145,83,M,Владислав Комаров,Raw,B,145
10,Aleksandr Chaschin,Open,1997,82.65,132.5,140,145,145,83,M,Александр Чащин,Raw,B,145
11,Kibar Maradze,Open,1988,82.9,-145,145,-150,145,83,M,Кибар Марадзе,Raw,B,145
12,Pavel Sobolevskiy,Open,1984,77.4,132.5,137.5,142.5,142.5,83,M,Павел Соболевский,Raw,B,142.5
13,Sergey Temnov,Open,1988,79.75,135,140,-145,140,83,M,Сергей Темнов,Raw,B,140
14,Evgeniy Ryzhinkov,Open,1987,79.95,130,132.5,135,135,83,M,Евгений Рыжинков,Raw,B,135
15,Vladimir Konyukhov,Open,1987,81.85,135,-137.5,-137.5,135,83,M,Владимир Конюхов,Raw,B,135
16,Dmitriy Fedorov,Open,1988,83,130,135,-140,135,83,M,Дмитрий Федоров,Raw,B,135
17,Nikita Kondakov,Open,1988,80.8,90,-100,102.5,102.5,83,M,Никита Кондаков,Raw,B,102.5
1,Aleksey Drozdov,Open,1988,91.25,205,210,215,215,93,M,Алексей Дроздов,Raw,B,215
2,Aleksandr Pankratyev,Open,1987,93,192.5,200,-205,200,93,M,Александр Панкратьев,Raw,B,200
3,Anton Tsvetkov,Open,1982,91.15,190,197.5,-202.5,197.5,93,M,Антон Цветков,Raw,B,197.5
4,Ivan Klippenshteyn,Open,1986,90.7,190,-197.5,-197.5,190,93,M,Иван Клиппенштейн,Raw,B,190
5,Aleksey Polonskiy,Open,1981,88.9,170,180,-190,180,93,M,Алексей Полонский,Raw,B,180
6,Mikhail Stepanov,Open,1981,89.75,160,170,-172.5,170,93,M,Михаил Степанов,Raw,B,170
7,Denis Kallonen,Open,1979,90.55,155,170,-180,170,93,M,Денис Каллонен,Raw,B,170
8,Aleksandr Nikamin,Open,1984,88.3,130,140,-147.5,140,93,M,Александр Никамин,Raw,B,140
9,Ivan Porada,Open,1987,84.3,120,125,-130,125,93,M,Иван Порада,Raw,B,125
1,Aleksey Maksimov,Open,1986,102.1,210,220,-230,220,105,M,Алексей Максимов,Raw,B,220
2,Sergey Barkovskiy,Open,1971,97.5,-210,-210,210,210,105,M,Сергей Барковский,Raw,B,210
3,Ruslan Ovchinnikov,Open,1976,103.35,210,-220,-220,210,105,M,Руслан Овчинников,Raw,B,210
4,Andrey Volkov,Open,1975,101.7,190,200,205,205,105,M,Андрей Волков,Raw,B,205
5,Nikolay Bazanov,Open,1981,104.35,170,190,202.5,202.5,105,M,Николай Базанов,Raw,B,202.5
6,Aleksandr Bespalov,Open,1980,99.5,185,200,-202.5,200,105,M,Александр Беспалов,Raw,B,200
7,Nikolay Brichikov,Open,1988,98.8,182.5,187.5,192.5,192.5,105,M,Николай Бричиков,Raw,B,192.5
8,Denis Deryagin,Open,1980,104.5,185,-192.5,192.5,192.5,105,M,Денис Дерягин,Raw,B,192.5
9,Ivan Kostyukov,Open,1988,100.7,-190,190,-195,190,105,M,Иван Костюков,Raw,B,190
10,Evgeniy Kozhemyako,Open,1986,103.65,190,-200,-205,190,105,M,Евгений Кожемяко,Raw,B,190
11,Zakhar Zankhabaev,Open,1985,104.6,170,180,190,190,105,M,Захар Занхабаев,Raw,B,190
12,Mikhail Gudkov,Open,1975,103.05,170,180,-185,180,105,M,Михаил Гудков,Raw,B,180
13,Roman Gritsaenko,Open,1978,101.7,-165,170,-175,170,105,M,Роман Грицаенко,Raw,B,170
14,Vyacheslav Biryukov,Open,1982,95.05,160,165,-170,165,105,M,Вячеслав Бирюков,Raw,B,165
15,Aleksandr Dorzhiev,Open,1984,94.55,152.5,157.5,162.5,162.5,105,M,Александр Доржиев,Raw,B,162.5
16,Pavel Vysochin,Open,1986,104.85,152.5,162.5,-165,162.5,105,M,Павел Высочин,Raw,B,162.5
17,Aleksey Tarasov,Open,1981,98.25,150,160,-165,160,105,M,Алексей Тарасов,Raw,B,160
18,Anton Stankevich,Open,1987,99.65,117.5,120,125,125,105,M,Антон Станкевич,Raw,B,125
DQ,Igor Shevelev,Open,1978,104.05,-190,-200,-200,,105,M,Игорь Шевелев,Raw,B,
DQ,Mikhail Schutskiy,Open,1981,97.4,-200,-200,-200,,105,M,Михаил Щуцкий,Raw,B,
1,Aleksandr Chernelevskiy,Open,1974,120,215,220,225,225,120,M,Александр Чернелевский,Raw,B,225
2,Nikita Reshetov,Open,1978,110.75,215,220,-227.5,220,120,M,Никита Решетов,Raw,B,220
3,Sergey Gusev,Open,1987,108.35,200,-207.5,207.5,207.5,120,M,Сергей Гусев,Raw,B,207.5
4,Maksim Gibalov,Open,1977,115.5,185,195,-200,195,120,M,Максим Гибалов,Raw,B,195
5,Egor Novitskiy,Open,1984,114.8,190,-195,,190,120,M,Егор Новицкий,Raw,B,190
6,Dmitriy Spiridonov,Open,1989,106.5,170,177.5,182.5,182.5,120,M,Дмитрий Спиридонов,Raw,B,182.5
7,Vitaliy Lomonosov,Open,1987,111.2,170,-180,-185,170,120,M,Виталий Ломоносов,Raw,B,170
8,Andrey Fedotov,Open,1976,111.25,170,-175,-180,170,120,M,Андрей Федотов,Raw,B,170
9,Artem Petrov #4,Open,1986,115.6,160,165,170,170,120,M,Артем Петров,Raw,B,170
DQ,Igor Bugaev,Open,1973,118.25,-212.5,-212.5,-212.5,,120,M,Игорь Бугаев,Raw,B,
DQ,Vadim Zaynulin,Open,1977,108.1,-145,-150,-165,,120,M,Вадим Зайнулин,Raw,B,
1,Aleksandr Abramov,Open,1974,135.75,225,237.5,247.5,247.5,120+,M,Александр Абрамов,Raw,B,247.5
2,Sergey Getman,Open,1974,133.1,225,235,245,245,120+,M,Сергей Гетман,Raw,B,245
3,Mikhail Korostin,Open,1984,125.55,222.5,230,-237.5,230,120+,M,Михаил Коростин,Raw,B,230
4,Andrey Chastev,Open,1974,128.75,220,-227.5,-230,220,120+,M,Андрей Частев,Raw,B,220
5,Mikhail Teterin,Open,1977,141.1,210,217.5,-225,217.5,120+,M,Михаил Тетерин,Raw,B,217.5
6,Dmitriy Kozlov #1,Open,1981,151.2,207.5,215,-220,215,120+,M,Дмитрий Козлов,Raw,B,215
7,Matvey Nikitin,Open,1982,123,190,200,207.5,207.5,120+,M,Матвей Никитин,Raw,B,207.5
8,Aleksey Klevakin,Open,1990,158.85,195,205,-210,205,120+,M,Алексей Клевакин,Raw,B,205
DQ,Maksim Rekrutyak,Open,1983,128.85,,,,,120+,M,Максим Рекрутяк,Raw,B,
4,Olga Pavlova,Open,1987,43.5,55,60,-65,60,47,F,Ольга Павлова,Raw,B,60
1,Ekaterina Dushenina,Open,1981,47,55,-57.5,-57.5,55,47,F,Екатерина Душенина,Raw,B,55
2,Anna Rodionova,Open,1989,45.9,32.5,35,37.5,37.5,47,F,Анна Родионова,Raw,B,37.5
3,Anna Arustamova,Open,1984,46.55,32.5,-40,-40,32.5,47,F,Анна Арустамова,Raw,B,32.5
1,Yanina Udarova,Open,1988,50.95,55,60,-65,60,52,F,Янина Ударова,Raw,B,60
2,Olga Smirnova,Open,1981,51.2,35,40,45,45,52,F,Ольга Смирнова,Raw,B,45
1,Antonina Abusueva,Open,1983,56.65,-70,72.5,-80,72.5,57,F,Антонина Абусуева,Raw,B,72.5
2,Viktoriya Anaschenkova,Open,1983,53.45,60,62.5,-65,62.5,57,F,Виктория Анащенкова,Raw,B,62.5
3,Inna Snisar,Open,1986,55.55,50,55,57.5,57.5,57,F,Инна Снисарь,Raw,B,57.5
4,Larisa Egorova,Open,1990,52.55,30,35,-37.5,35,57,F,Лариса Егорова,Raw,B,35
5,Yuliya Shushpannikova,Open,1981,55.4,30,-32.5,-37.5,30,57,F,Юлия Шушпанникова,Raw,B,30
1,Tatyana Efimova,Open,1977,59.4,85,90,92.5,92.5,63,F,Татьяна Ефимова,Raw,B,92.5
2,Ekaterina Guryeva,Open,1985,60.45,87.5,92.5,-95,92.5,63,F,Екатерина Гурьева,Raw,B,92.5
3,Yana Shmidt,Open,1983,62,72.5,75,-77.5,75,63,F,Яна Шмидт,Raw,B,75
4,Irina Osipova,Open,1987,59.65,57.5,60,62.5,62.5,63,F,Ирина Осипова,Raw,B,62.5
5,Yuliya Galkina,Open,1989,60.45,52.5,57.5,60,60,63,F,Юлия Галкина,Raw,B,60
6,Tatyana Yakimova,Open,1988,60.9,55,57.5,-62.5,57.5,63,F,Татьяна Якимова,Raw,B,57.5
7,Alena Dobyko,Open,1988,63,47.5,52.5,-60,52.5,63,F,Алена Добыко,Raw,B,52.5
8,Alena Volkova,Open,1988,62.25,42.5,45,-50,45,63,F,Алена Волкова,Raw,B,45
9,Olga Klopenkova,Open,1985,60.1,40,42.5,-47.5,42.5,63,F,Ольга Клопенкова,Raw,B,42.5
10,Viktoriya Khokhlova,Open,1990,60.85,42.5,-45,-45,42.5,63,F,Виктория Хохлова,Raw,B,42.5
1,Elizaveta Starchenko,Open,1980,71.2,95,102.5,107.5,107.5,72,F,Елизавета Старченко,Raw,B,107.5
2,Anna Gudkova,Open,1978,66.85,95,100,105,105,72,F,Анна Гудкова,Raw,B,105
3,Aleksandra Brusser,Open,1974,64.15,50,55,-57.5,55,72,F,Александра Бруссер,Raw,B,55
1,Natalya Ogryzko,Open,1975,83.45,140,142.5,-145,142.5,84,F,Наталья Огрызько,Raw,B,142.5
2,Alena Kotenko,Open,1989,75.35,75,-77.5,77.5,77.5,84,F,Алена Котенко,Raw,B,77.5
3,Yuliya Skryagina,Open,1990,72.1,45,-50,-50,45,84,F,Юлия Скрягина,Raw,B,45
