Division,WeightClassKg,Place,Name,Team,BodyweightKg,Best3SquatKg,Best3BenchKg,Best3DeadliftKg,TotalKg,Equipment,Event,Sex
Boys,51.71,1,Jake Morris,Bowie,51.07,102.06,54.43,127.01,283.5,Single-ply,SBD,M
Boys,55.79,1,Nathan Mock,Perrin-Whitt,54.88,138.35,77.11,147.42,362.87,Single-ply,SBD,M
Boys,55.79,2,Franklin Lopez,Millsap,54.7,145.15,58.97,113.4,317.51,Single-ply,SBD,M
Boys,55.79,3,Rylee Miller,Paradise,54.88,124.74,63.5,117.93,306.17,Single-ply,SBD,M
Boys,55.79,DQ,Daniel Rivera,Ponder,52.44,,,,,Single-ply,SBD,M
Boys,55.79,DQ,Joey Crawford,Bowie,55.43,,,,,Single-ply,SBD,M
Boys,59.87,1,Cristian Martinez,Bowie,57.52,192.78,111.13,192.78,496.68,Single-ply,SBD,M
Boys,59.87,2,Zack Allen #1,Ponder,56.79,154.22,74.84,154.22,383.29,Single-ply,SBD,M
Boys,59.87,3,Juan Mares,Bowie,57.61,149.69,83.91,142.88,376.48,Single-ply,SBD,M
Boys,59.87,4,Trayce Barber,Boyd,59.87,138.35,90.72,136.08,365.14,Single-ply,SBD,M
Boys,59.87,5,Jay Rogers,Bowie,59.87,142.88,70.31,147.42,360.61,Single-ply,SBD,M
Boys,59.87,6,Raymond Pacheco,Millsap,59.87,122.47,58.97,142.88,324.32,Single-ply,SBD,M
Boys,67.13,1,Darian Sotomi,Paradise,66.5,199.58,120.2,192.78,512.56,Single-ply,SBD,M
Boys,67.13,2,Jared Holmes,Perrin-Whitt,65.68,161.03,102.06,206.38,469.47,Single-ply,SBD,M
Boys,67.13,3,Braden Gonzales,Alvord,67.04,165.56,102.06,176.9,444.52,Single-ply,SBD,M
Boys,67.13,4,Deven Anders,Henrietta,65.41,172.37,108.86,133.81,415.04,Single-ply,SBD,M
Boys,67.13,5,Casey Reynolds,Boyd,61.6,136.08,74.84,142.88,353.8,Single-ply,SBD,M
Boys,67.13,6,Sawyer Przilas,Bowie,64.14,124.74,72.57,140.61,337.93,Single-ply,SBD,M
Boys,67.13,7,Brady Adair,Perrin-Whitt,67.04,117.93,72.57,145.15,335.66,Single-ply,SBD,M
Boys,67.13,8,Erik Gonzalez #3,Millsap,60.87,124.74,81.65,124.74,331.12,Single-ply,SBD,M
Boys,67.13,9,Garrett Fontinot,Paradise,62.05,124.74,79.38,127.01,331.12,Single-ply,SBD,M
Boys,67.13,10,Brock Barron,Millsap,64.86,124.74,68.04,136.08,328.85,Single-ply,SBD,M
Boys,67.13,11,Lee Crohan,Boyd,64.95,117.93,70.31,136.08,324.32,Single-ply,SBD,M
Boys,67.13,12,Justin Jackson #2,Bowie,62.87,102.06,52.16,120.2,274.42,Single-ply,SBD,M
Boys,67.13,13,Chance Tomlinson,Bowie,62.87,156.49,88.45,,244.94,Single-ply,SB,M
Boys,74.84,1,Danny Cumpton,Ponder,72.76,167.83,104.33,201.85,474,Single-ply,SBD,M
Boys,74.84,2,Kolton Davis,Millsap,72.67,165.56,74.84,163.29,403.7,Single-ply,SBD,M
Boys,74.84,3,Albert Navarrette,Ponder,74.3,163.29,86.18,154.22,403.7,Single-ply,SBD,M
Boys,74.84,4,Luis Rico,Nocona,72.76,136.08,81.65,154.22,371.95,Single-ply,SBD,M
Boys,74.84,5,Mason Barry,Henrietta,73.21,127.01,86.18,136.08,349.27,Single-ply,SBD,M
Boys,74.84,6,Hank Moore,Perrin-Whitt,72.28,127.01,61.23,136.08,324.32,Single-ply,SBD,M
Boys,74.84,DQ,Will Reaves,Paradise,71.94,,,,,Single-ply,SBD,M
Boys,74.84,DQ,Chalder Hefley,Bowie,69.31,,,,,Single-ply,SBD,M
Boys,82.1,1,Garrett Johnson,Ponder,78.11,183.7,86.18,190.51,460.4,Single-ply,SBD,M
Boys,82.1,2,Zackary Otto,Bowie,78.11,167.83,86.18,170.1,424.11,Single-ply,SBD,M
Boys,82.1,3,Ricky Bottorf,Millsap,75.75,151.95,90.72,167.83,410.5,Single-ply,SBD,M
Boys,82.1,4,Nick Rhodes,Paradise,79.74,147.42,81.65,136.08,365.14,Single-ply,SBD,M
Boys,82.1,5,Jason Daughtry,Nocona,80.65,138.35,70.31,,208.65,Single-ply,SB,M
Boys,89.81,1,Austin Bennett,Ponder,84.01,235.87,124.74,217.72,578.33,Single-ply,SBD,M
Boys,89.81,2,Ben Dankesreiter,Ponder,88.54,222.26,117.93,204.12,544.31,Single-ply,SBD,M
Boys,89.81,3,Bridger Skogberg,Paradise,87.54,199.58,120.2,192.78,512.56,Single-ply,SBD,M
Boys,89.81,3,Dakota Partin,Boyd,89.54,176.9,111.13,192.78,480.81,Single-ply,SBD,M
Boys,89.81,4,Tristan Barbare,Perrin-Whitt,89.81,204.12,102.06,197.31,503.49,Single-ply,SBD,M
Boys,89.81,5,Kylar Pendergraft,Nocona,89.54,195.04,92.99,181.44,469.47,Single-ply,SBD,M
Boys,89.81,6,Juan Mancilla,Nocona,88.81,174.63,90.72,190.51,455.86,Single-ply,SBD,M
Boys,89.81,DQ,Bret Davis,Bowie,86.18,,,,,Single-ply,SBD,M
Boys,99.79,1,Tristan Dennison,Bowie,91.9,235.87,122.47,219.99,578.33,Single-ply,SBD,M
Boys,99.79,2,Mitch Fruth,Ponder,98.79,215.46,120.2,190.51,526.17,Single-ply,SBD,M
Boys,99.79,4,Alex Silva,Boyd,99.16,165.56,95.25,172.37,433.18,Single-ply,SBD,M
Boys,99.79,5,Cole Tipton,Millsap,93.17,154.22,95.25,165.56,415.04,Single-ply,SBD,M
Boys,99.79,6,Daniel Aguilar,Millsap,98.34,161.03,95.25,142.88,399.16,Single-ply,SBD,M
Boys,99.79,DQ,Lucas Ramsey,Perrin-Whitt,93.17,,,,,Single-ply,SBD,M
Boys,109.77,1,Cody Holoway,Paradise,108.59,249.48,120.2,226.8,596.47,Single-ply,SBD,M
Boys,109.77,2,Toby Patrick,Millsap,105.14,142.88,83.91,142.88,369.68,Single-ply,SBD,M
Boys,109.77,3,Wesley Pledger,Saint Jo,103.06,90.72,90.72,136.08,317.51,Single-ply,SBD,M
Boys,109.77,4,Deuce Glasker,Nocona,105.51,133.81,68.04,111.13,312.98,Single-ply,SBD,M
Boys,124.74,1,Saul Landaverde,Bowie,122.47,308.44,158.76,235.87,703.07,Single-ply,SBD,M
Boys,124.74,2,Tanner Edwards,Paradise,117.93,283.5,176.9,226.8,687.19,Single-ply,SBD,M
Boys,124.74,3,Blake Martin,Alvord,118.21,272.16,142.88,199.58,614.62,Single-ply,SBD,M
Boys,124.74,4,John Garcia,Millsap,122.38,206.38,120.2,204.12,530.7,Single-ply,SBD,M
Boys,124.74,5,Nick Bordelais,Millsap,121.74,181.44,90.72,190.51,462.66,Single-ply,SBD,M
Boys,124.74,6,Caleb Brown,Boyd,111.4,181.44,99.79,163.29,444.52,Single-ply,SBD,M
Boys,124.74,DQ,Deric Conner,Paradise,113.76,,,,,Single-ply,SBD,M
Boys,124.74,DQ,Andrew Borsch,Ponder,112.94,,,,,Single-ply,SBD,M
Boys,124.74+,1,Tyler Wagner,Ponder,129.55,235.87,117.93,195.04,548.85,Single-ply,SBD,M
Boys,124.74+,2,Tyler Yzaguirre,Alvord,130.54,224.53,127.01,172.37,523.9,Single-ply,SBD,M
Boys,124.74+,3,Tyler Yeck,Ponder,144.15,147.42,83.91,,231.33,Single-ply,SB,M
Boys,,NS,TJ Lindenborn,Saint Jo,,,,,,Single-ply,SBD,M
Boys,,NS,Brendan Fruth,Ponder,,,,,,Single-ply,SBD,M
Boys,,NS,David Eskandari,Ponder,,,,,,Single-ply,SBD,M
Boys,,NS,Cody Putnam,Alvord,,,,,,Single-ply,SBD,M
Boys,,NS,Cody Snead,Alvord,,,,,,Single-ply,SBD,M
Boys,,NS,Tim Sombathy,Alvord,,,,,,Single-ply,SBD,M
Boys,,NS,Jared Roberts,Bowie,,,,,,Single-ply,SBD,M
Boys,,NS,Jaime Padron,Millsap,,,,,,Single-ply,SBD,M
Boys,,NS,Matthew Oldham,Boyd,,,,,,Single-ply,SBD,M
Boys,,NS,Caleb Rodriguez,Boyd,,,,,,Single-ply,SBD,M
Boys,,NS,Zach Boyd,Nocona,,,,,,Single-ply,SBD,M
Boys,,NS,Tyler Hayes,Nocona,,,,,,Single-ply,SBD,M
Boys,,NS,Jeff Morlen,Millsap,,,,,,Single-ply,SBD,M
Boys,,NS,Dakota Armstrong,Perrin-Whitt,,,,,,Single-ply,SBD,M
Boys,,NS,Cole Hall,Perrin-Whitt,,,,,,Single-ply,SBD,M
Boys,,NS,Lorenzo Romo,Paradise,,,,,,Single-ply,SBD,M
Boys,,NS,Austin Lamaster,Perrin-Whitt,,,,,,Single-ply,SBD,M
